<svg width="278" height="64" viewBox="0 0 278 64" fill="none" xmlns="http://www.w3.org/2000/svg">
<g clip-path="url(#clip0_1_872)">
<mask id="mask0_1_872" style="mask-type:alpha" maskUnits="userSpaceOnUse" x="7" y="8" width="46" height="56">
<path d="M35.4545 41.1374V45.275H36.3636C45.401 45.275 52.7273 52.528 52.7273 61.475V63.5H7.27271V61.475C7.27271 52.528 14.599 45.275 23.6363 45.275H24.5454V41.1374C20.6278 39.295 17.8118 35.5296 17.3421 31.0733C16.0182 30.888 15 29.7617 15 28.4V25.25C15 23.9121 15.9828 22.8015 17.2727 22.5873V21.2C17.2727 14.2412 22.9709 8.59998 30 8.59998C37.0291 8.59998 42.7273 14.2412 42.7273 21.2V22.5873C44.0171 22.8015 45 23.9121 45 25.25V28.4C45 29.7617 43.9817 30.888 42.6579 31.0733C42.1881 35.5296 39.3721 39.295 35.4545 41.1374Z" fill="white"/>
</mask>
<g mask="url(#mask0_1_872)">
<path d="M35.4545 41.1374V45.275H36.3636C45.401 45.275 52.7273 52.528 52.7273 61.475V63.5H7.27271V61.475C7.27271 52.528 14.599 45.275 23.6363 45.275H24.5454V41.1374C20.6278 39.295 17.8118 35.5296 17.3421 31.0733C16.0182 30.888 15 29.7617 15 28.4V25.25C15 23.9121 15.9828 22.8015 17.2727 22.5873V21.2C17.2727 14.2412 22.9709 8.59998 30 8.59998C37.0291 8.59998 42.7273 14.2412 42.7273 21.2V22.5873C44.0171 22.8015 45 23.9121 45 25.25V28.4C45 29.7617 43.9817 30.888 42.6579 31.0733C42.1881 35.5296 39.3721 39.295 35.4545 41.1374Z" fill="#D0C6AC"/>
<path d="M67.2727 8.59998H7.27271V71.6H67.2727V8.59998Z" fill="#EDB98A"/>
<path fill-rule="evenodd" clip-rule="evenodd" d="M42.7273 26.375V31.55C42.7273 38.5088 37.0291 44.15 30 44.15C22.9709 44.15 17.2727 38.5088 17.2727 31.55V26.375V29.75C17.2727 36.7088 22.9709 42.35 30 42.35C37.0291 42.35 42.7273 36.7088 42.7273 29.75V26.375Z" fill="black" fill-opacity="0.1"/>
</g>
<mask id="mask1_1_872" style="mask-type:alpha" maskUnits="userSpaceOnUse" x="7" y="45" width="46" height="19">
<path fill-rule="evenodd" clip-rule="evenodd" d="M37.6418 45.3354C46.0818 45.981 52.7273 52.9655 52.7273 61.4867V63.5001H7.27271V61.4867C7.27271 52.8879 14.0398 45.8538 22.5893 45.3193C22.5305 45.5616 22.5 45.8098 22.5 46.0626C22.5 48.7342 25.9087 50.9001 30.1136 50.9001C34.3185 50.9001 37.7273 48.7342 37.7273 46.0626C37.7273 45.8154 37.6981 45.5726 37.6418 45.3354L37.6418 45.3354Z" fill="white"/>
</mask>
<g mask="url(#mask1_1_872)">
<path fill-rule="evenodd" clip-rule="evenodd" d="M37.6418 45.3354C46.0818 45.981 52.7273 52.9655 52.7273 61.4867V63.5001H7.27271V61.4867C7.27271 52.8879 14.0398 45.8538 22.5893 45.3193C22.5305 45.5616 22.5 45.8098 22.5 46.0626C22.5 48.7342 25.9087 50.9001 30.1136 50.9001C34.3185 50.9001 37.7273 48.7342 37.7273 46.0626C37.7273 45.8154 37.6981 45.5726 37.6418 45.3354L37.6418 45.3354Z" fill="#E6E6E6"/>
<path d="M60 38.75H0V63.5H60V38.75Z" fill="#25557C"/>
<path fill-rule="evenodd" clip-rule="evenodd" d="M32.4849 57.513C31.5571 57.8236 30.5416 58.2608 30.0064 59.1046C29.5865 59.7667 29.5583 59.0022 28.9721 59.2381C28.4024 59.4673 28.5582 60.4133 28.3512 60.8809C28.1902 60.6128 28.1141 60.3147 27.9113 60.0699C28.069 59.9697 28.215 59.8351 28.3237 59.6819C28.3592 59.6102 27.2345 59.7603 27.17 59.7786C26.8493 59.869 26.5474 59.9522 26.241 60.1003C26.322 59.9841 26.4015 59.867 26.4797 59.7489C26.5501 59.6427 26.6195 59.5355 26.6875 59.4277C26.7346 59.2747 26.8185 59.2743 26.9393 59.4264C27.1095 59.4346 27.207 59.5067 27.3852 59.4663C28.0477 59.3163 28.2587 58.066 27.442 58.1192C27.8009 57.4736 28.1194 56.8181 28.4086 56.1387C28.5228 57.1042 29.7904 56.7717 30.1629 56.2568C30.6494 55.5843 30.0258 54.3078 29.144 54.4317C29.276 54.1222 29.41 53.8101 29.5188 53.4916C29.7671 53.854 30.2011 54.0295 30.5503 54.2693C30.9164 54.5207 31.226 54.8184 31.4964 55.1707C32.0388 55.8773 32.3584 56.7474 32.9088 57.4326C32.7639 57.4402 32.6227 57.4671 32.4849 57.513ZM34.5316 56.5257C34.3879 55.2303 33.3613 53.9155 32.3863 53.111C31.8068 52.633 30.0589 51.4494 29.3621 52.3596C29.9239 52.6007 30.5437 52.6587 31.1006 52.9196C31.8553 53.2734 32.4466 53.8554 32.9572 54.5071C33.6701 55.417 34.7686 57.2707 33.0649 57.7439C33.1826 57.6678 33.2509 57.5843 33.344 57.4495C33.1151 57.3972 33.2076 57.0271 33.1271 56.7854C33.0335 56.5039 32.8522 56.2304 32.6988 55.9793C32.4555 55.5808 32.1882 55.1842 31.9025 54.8159C31.5211 54.3241 31.0648 53.9369 30.5441 53.6019C30.3381 53.4694 30.1407 53.352 29.904 53.2835C29.5973 53.1948 29.6977 53.3029 29.6138 53.0255C29.5612 52.8517 29.6086 52.6289 29.558 52.4424C29.1095 52.8155 28.9637 53.3547 28.7627 53.8782C28.5308 54.4821 28.2802 55.0786 28.0362 55.6775C27.4372 57.1478 26.6649 58.4664 25.7882 59.783C25.6356 60.0123 25.2961 60.4468 25.5404 60.7221C25.7589 60.9685 26.0701 60.791 26.31 60.6909C26.6365 60.5549 27.0794 60.2039 27.4316 60.3878C27.8858 60.625 27.6712 61.5093 28.3894 61.474C29.097 61.4392 28.9638 60.286 29.1909 59.8275C29.7163 60.2067 30.1399 59.9714 30.4588 59.465C30.8285 58.8781 31.3169 58.6423 31.9392 58.3541C32.1937 58.2362 32.6288 57.9178 32.8939 57.8781C33.1132 57.8455 33.324 58.0769 33.6173 58.0664C34.3214 58.041 34.6154 57.1095 34.5316 56.5257Z" fill="white"/>
<path fill-rule="evenodd" clip-rule="evenodd" d="M29.6675 57.1625C29.1163 57.0623 28.3477 57.1459 28.2973 57.872C28.2664 58.317 28.6176 58.7378 28.9977 58.9214C30.1618 59.4837 31.0679 57.4165 29.6675 57.1625Z" fill="white"/>
<path fill-rule="evenodd" clip-rule="evenodd" d="M31.8945 56.3355C31.7467 56.1767 31.5074 56.0566 31.2864 56.1123C31.3572 56.064 31.4157 55.977 31.4829 55.9235C30.7655 55.4091 30.3148 56.7062 30.7224 57.2168C31.34 57.9907 32.549 57.0443 31.8945 56.3355Z" fill="white"/>
</g>
<mask id="mask2_1_872" style="mask-type:alpha" maskUnits="userSpaceOnUse" x="25" y="33" width="10" height="5">
<path fill-rule="evenodd" clip-rule="evenodd" d="M25.7085 34.0539C25.949 36.1895 27.7786 37.8501 29.9999 37.8501C32.2282 37.8501 34.0622 36.1793 34.2935 34.0341C34.3121 33.8614 34.1174 33.5751 33.8733 33.5751C30.4883 33.5751 27.8949 33.5751 26.156 33.5751C25.9105 33.5751 25.6845 33.8402 25.7085 34.0539Z" fill="white"/>
</mask>
<g mask="url(#mask2_1_872)">
<path fill-rule="evenodd" clip-rule="evenodd" d="M25.7085 34.0539C25.949 36.1895 27.7786 37.8501 29.9999 37.8501C32.2282 37.8501 34.0622 36.1793 34.2935 34.0341C34.3121 33.8614 34.1174 33.5751 33.8733 33.5751C30.4883 33.5751 27.8949 33.5751 26.156 33.5751C25.9105 33.5751 25.6845 33.8402 25.7085 34.0539Z" fill="black" fill-opacity="0.7"/>
<path d="M32.4999 31.1H27.7272C27.0996 31.1 26.5908 31.6037 26.5908 32.225V33.575C26.5908 34.1963 27.0996 34.7 27.7272 34.7H32.4999C33.1275 34.7 33.6363 34.1963 33.6363 33.575V32.225C33.6363 31.6037 33.1275 31.1 32.4999 31.1Z" fill="white"/>
<path d="M28.8635 41C30.2442 41 31.3635 39.892 31.3635 38.525C31.3635 37.1581 30.2442 36.05 28.8635 36.05C27.4828 36.05 26.3635 37.1581 26.3635 38.525C26.3635 39.892 27.4828 41 28.8635 41Z" fill="#FF4F6D"/>
<path d="M31.1362 40.9999C32.5169 40.9999 33.6362 39.8918 33.6362 38.5249C33.6362 37.158 32.5169 36.0499 31.1362 36.0499C29.7555 36.0499 28.6362 37.158 28.6362 38.5249C28.6362 39.8918 29.7555 40.9999 31.1362 40.9999Z" fill="#FF4F6D"/>
</g>
<path fill-rule="evenodd" clip-rule="evenodd" d="M27.2727 29.75C27.2727 30.7441 28.4937 31.55 30 31.55C31.5062 31.55 32.7273 30.7441 32.7273 29.75" fill="black" fill-opacity="0.16"/>
<mask id="mask3_1_872" style="mask-type:alpha" maskUnits="userSpaceOnUse" x="20" y="23" width="8" height="5">
<path fill-rule="evenodd" clip-rule="evenodd" d="M24.091 26.8358C26.2751 26.8358 27.2728 27.8373 27.2728 26.2763C27.2728 24.7153 25.8483 23.6749 24.091 23.6749C22.3337 23.6749 20.9092 24.7153 20.9092 26.2763C20.9092 27.8373 21.9069 26.8358 24.091 26.8358Z" fill="white"/>
</mask>
<g mask="url(#mask3_1_872)">
<path fill-rule="evenodd" clip-rule="evenodd" d="M24.091 26.8358C26.2751 26.8358 27.2728 27.8373 27.2728 26.2763C27.2728 24.7153 25.8483 23.6749 24.091 23.6749C22.3337 23.6749 20.9092 24.7153 20.9092 26.2763C20.9092 27.8373 21.9069 26.8358 24.091 26.8358Z" fill="white"/>
<path d="M24.0909 27.275C24.844 27.275 25.4546 26.6705 25.4546 25.925C25.4546 25.1794 24.844 24.575 24.0909 24.575C23.3378 24.575 22.7273 25.1794 22.7273 25.925C22.7273 26.6705 23.3378 27.275 24.0909 27.275Z" fill="black" fill-opacity="0.7"/>
</g>
<mask id="mask4_1_872" style="mask-type:alpha" maskUnits="userSpaceOnUse" x="32" y="23" width="8" height="5">
<path fill-rule="evenodd" clip-rule="evenodd" d="M35.9091 26.8359C38.0932 26.8359 39.0909 27.8374 39.0909 26.2764C39.0909 24.7155 37.6664 23.675 35.9091 23.675C34.1518 23.675 32.7273 24.7155 32.7273 26.2764C32.7273 27.8374 33.725 26.8359 35.9091 26.8359Z" fill="white"/>
</mask>
<g mask="url(#mask4_1_872)">
<path fill-rule="evenodd" clip-rule="evenodd" d="M35.9091 26.8359C38.0932 26.8359 39.0909 27.8374 39.0909 26.2764C39.0909 24.7155 37.6664 23.675 35.9091 23.675C34.1518 23.675 32.7273 24.7155 32.7273 26.2764C32.7273 27.8374 33.725 26.8359 35.9091 26.8359Z" fill="white"/>
<path d="M35.909 27.275C36.6622 27.275 37.2727 26.6705 37.2727 25.925C37.2727 25.1794 36.6622 24.575 35.909 24.575C35.1559 24.575 34.5454 25.1794 34.5454 25.925C34.5454 26.6705 35.1559 27.275 35.909 27.275Z" fill="black" fill-opacity="0.7"/>
</g>
<path fill-rule="evenodd" clip-rule="evenodd" d="M26.059 21.4455C24.9231 21.5269 23.8039 21.4647 22.6687 21.418C21.7983 21.3823 20.9147 21.2646 20.0837 21.6456C19.9246 21.7185 19.0542 22.1583 19.0744 22.399C19.0905 22.5915 19.9689 22.8921 20.127 22.9472C20.9608 23.2375 21.759 23.1487 22.6165 23.0978C23.6683 23.0354 24.7154 23.0813 25.7667 23.05C26.4747 23.029 27.566 22.9103 27.9159 22.0605C28.0212 21.8045 27.9397 21.2924 27.8341 21.0125C27.792 20.901 27.6703 20.859 27.5783 20.9233C27.2489 21.1534 26.6099 21.4061 26.059 21.4455Z" fill="black" fill-opacity="0.6"/>
<path fill-rule="evenodd" clip-rule="evenodd" d="M33.941 21.4455C35.0769 21.5269 36.1961 21.4647 37.3313 21.418C38.2017 21.3823 39.0853 21.2646 39.9163 21.6456C40.0754 21.7185 40.9458 22.1583 40.9256 22.399C40.9095 22.5915 40.0311 22.8921 39.873 22.9472C39.0392 23.2375 38.241 23.1487 37.3835 23.0978C36.3317 23.0354 35.2846 23.0813 34.2333 23.05C33.5253 23.029 32.434 22.9103 32.0841 22.0605C31.9788 21.8045 32.0603 21.2924 32.1659 21.0125C32.208 20.901 32.3297 20.859 32.4217 20.9233C32.7511 21.1534 33.3901 21.4061 33.941 21.4455Z" fill="black" fill-opacity="0.6"/>
<mask id="mask5_1_872" style="mask-type:alpha" maskUnits="userSpaceOnUse" x="0" y="0" width="60" height="64">
<path d="M60 0.5H0V63.5H60V0.5Z" fill="white"/>
</mask>
<g mask="url(#mask5_1_872)">
<mask id="mask6_1_872" style="mask-type:alpha" maskUnits="userSpaceOnUse" x="17" y="22" width="26" height="21">
<path fill-rule="evenodd" clip-rule="evenodd" d="M33.961 38.788C33.3897 39.3041 32.7811 39.5363 32.012 39.3739C31.8796 39.346 31.34 38.3528 29.9999 38.3528C28.6598 38.3528 28.1203 39.346 27.9878 39.3739C27.2187 39.5363 26.6101 39.3041 26.0389 38.788C24.965 37.8176 24.0719 36.4794 24.6086 35.0194C24.8882 34.2584 25.3431 33.4229 26.1706 33.1804C27.0541 32.9215 28.2947 33.1799 29.1851 33.0032C29.4736 32.9458 29.7887 32.844 29.9999 32.675C30.2111 32.844 30.5263 32.9458 30.8146 33.0032C31.7051 33.1799 32.9457 32.9215 33.8293 33.1804C34.6568 33.4229 35.1116 34.2584 35.3914 35.0194C35.928 36.4794 35.0349 37.8176 33.961 38.788ZM42.7456 22.55C41.9706 24.4401 42.2699 26.7931 42.1265 28.7771C42.01 30.3898 41.6675 32.8068 40.2211 33.8483C39.4814 34.3809 38.135 35.276 37.1686 35.0263C36.5033 34.8545 36.4323 32.9653 35.558 32.2581C34.5663 31.4561 33.3279 31.1037 32.0793 31.1581C31.5405 31.1816 30.4509 31.176 29.9999 31.5862C29.549 31.176 28.4594 31.1816 27.9206 31.1581C26.672 31.1037 25.4336 31.4561 24.4419 32.2581C23.5676 32.9653 23.4967 34.8545 22.8314 35.0263C21.8649 35.276 20.5186 34.3809 19.7788 33.8483C18.3323 32.8068 17.99 30.3898 17.8733 28.7771C17.73 26.7931 18.0293 24.4401 17.2542 22.55C16.8772 22.55 17.1259 26.179 17.1259 26.179V30.7592C17.1331 34.199 19.3034 39.3475 24.1154 41.3135C25.2923 41.7943 27.958 42.575 29.9999 42.575C32.0419 42.575 34.7076 41.8686 35.8845 41.3878C40.6965 39.4219 42.8668 34.199 42.8741 30.7592V26.179C42.8741 26.179 43.1227 22.55 42.7456 22.55Z" fill="white"/>
</mask>
<g mask="url(#mask6_1_872)">
<path fill-rule="evenodd" clip-rule="evenodd" d="M33.961 38.788C33.3897 39.3041 32.7811 39.5363 32.012 39.3739C31.8796 39.346 31.34 38.3528 29.9999 38.3528C28.6598 38.3528 28.1203 39.346 27.9878 39.3739C27.2187 39.5363 26.6101 39.3041 26.0389 38.788C24.965 37.8176 24.0719 36.4794 24.6086 35.0194C24.8882 34.2584 25.3431 33.4229 26.1706 33.1804C27.0541 32.9215 28.2947 33.1799 29.1851 33.0032C29.4736 32.9458 29.7887 32.844 29.9999 32.675C30.2111 32.844 30.5263 32.9458 30.8146 33.0032C31.7051 33.1799 32.9457 32.9215 33.8293 33.1804C34.6568 33.4229 35.1116 34.2584 35.3914 35.0194C35.928 36.4794 35.0349 37.8176 33.961 38.788ZM42.7456 22.55C41.9706 24.4401 42.2699 26.7931 42.1265 28.7771C42.01 30.3898 41.6675 32.8068 40.2211 33.8483C39.4814 34.3809 38.135 35.276 37.1686 35.0263C36.5033 34.8545 36.4323 32.9653 35.558 32.2581C34.5663 31.4561 33.3279 31.1037 32.0793 31.1581C31.5405 31.1816 30.4509 31.176 29.9999 31.5862C29.549 31.176 28.4594 31.1816 27.9206 31.1581C26.672 31.1037 25.4336 31.4561 24.4419 32.2581C23.5676 32.9653 23.4967 34.8545 22.8314 35.0263C21.8649 35.276 20.5186 34.3809 19.7788 33.8483C18.3323 32.8068 17.99 30.3898 17.8733 28.7771C17.73 26.7931 18.0293 24.4401 17.2542 22.55C16.8772 22.55 17.1259 26.179 17.1259 26.179V30.7592C17.1331 34.199 19.3034 39.3475 24.1154 41.3135C25.2923 41.7943 27.958 42.575 29.9999 42.575C32.0419 42.575 34.7076 41.8686 35.8845 41.3878C40.6965 39.4219 42.8668 34.199 42.8741 30.7592V26.179C42.8741 26.179 43.1227 22.55 42.7456 22.55Z" fill="#331B0C"/>
<path d="M63.6365 16.7001H3.63647V71.6001H63.6365V16.7001Z" fill="#724133"/>
</g>
<mask id="mask7_1_872" style="mask-type:alpha" maskUnits="userSpaceOnUse" x="3" y="3" width="55" height="60">
<path fill-rule="evenodd" clip-rule="evenodd" d="M22.8904 45.2914C23.1376 45.2805 23.3863 45.2749 23.6362 45.2749H24.5453V41.1374C21.87 39.8792 19.7084 37.7242 18.457 35.0648C17.8287 33.128 17.8661 31.0295 17.7273 29.0358C17.5444 26.4077 17.7019 23.8433 18.3037 21.2556C18.8468 18.9212 19.6274 17.669 21.4006 15.7982C22.3913 14.7529 23.8789 14.6925 25.3596 14.3215C26.8581 13.9459 28.2259 13.3742 29.163 12.2986C31.2274 14.6412 36.7434 13.7981 38.7622 16.351C41.2171 19.4555 41.2446 21.4587 41.5334 25.0456C41.7499 27.7346 41.4133 32.5975 41.3189 35.5167C40.042 37.9681 37.9765 39.9512 35.4544 41.1374V45.2749H36.3635C37.8716 45.2749 39.3321 45.4769 40.7188 45.855C40.2529 46.5691 39.6974 47.2453 39.1163 47.8739C38.2455 48.8161 37.3705 49.7908 36.3889 50.6565C35.2659 51.6468 34.1917 52.3657 33.5099 53.5999C33.2013 54.1585 32.6606 54.746 33.2328 55.3587C33.7554 55.9184 34.5792 55.803 35.1385 55.3982C35.9651 54.7997 36.5789 53.855 37.3407 53.1672C36.6049 54.4756 35.5812 56.4262 36.1068 57.8933C36.2856 58.3922 36.4671 58.3823 36.7434 58.7148C37.1797 58.7244 37.3522 58.9199 37.2609 59.3009C37.3018 59.4098 37.3427 59.5185 37.3837 59.6275C37.7145 60.2111 38.3477 60.6198 39.1518 60.3448C41.7792 59.446 38.7484 55.4034 41.641 54.2018C42.1587 54.8384 41.3942 56.627 41.3736 57.4094C41.3483 58.374 41.4013 60.5622 42.8831 60.8246C44.814 61.1667 44.0692 59.3404 44.1455 58.5634C44.234 57.6598 44.7956 56.4682 45.2526 55.668C44.9746 56.5183 44.4552 58.4025 45.8926 58.7886C47.5556 59.2354 47.3656 57.3069 47.618 56.5047C47.67 57.6917 49.2192 60.4984 50.6191 58.2814C51.3404 57.1393 50.8484 55.2573 50.7694 54.0394C51.7724 55.0653 52.5739 53.7355 52.5508 52.9976C52.9322 54.0668 54.3652 57.0481 55.6351 54.6816C56.4073 53.2427 55.5837 51.31 55.0707 49.9208C56.4216 50.0378 56.1502 48.7426 55.949 48.0993C55.652 47.1495 55.8105 47.0101 55.8717 46.028C57.7467 47.1091 57.6892 44.1754 57.5857 43.4559C57.3254 41.6442 55.9019 40.022 54.8034 38.494C54.0156 37.3981 52.5454 35.4898 52.9764 34.1682C53.4211 34.7235 54.4554 34.7177 54.8665 34.1363C55.2146 33.644 54.8457 32.8322 54.6777 32.3403C54.2184 30.9948 53.3006 30.1254 52.4708 28.9696C50.8553 26.7194 51.0877 23.7647 50.9383 21.2492C50.7521 18.1108 50.0715 15.0211 47.1928 12.7381C45.6503 11.5149 43.7705 10.5075 42.3359 9.20971C41.9447 8.8558 41.7793 8.41734 41.412 8.07618C40.9998 7.69331 40.8074 7.78398 40.467 7.23894C39.8605 6.26819 39.1483 5.35924 37.6826 5.31365C36.7238 5.28398 35.511 6.08511 34.6468 5.96803C33.9372 5.87205 33.489 4.8704 32.9067 4.53424C32.0054 4.01388 31.3764 4.21593 30.413 4.51731C28.9792 4.96587 28.0654 5.12222 26.6051 4.58605C25.6114 4.22113 24.6736 3.45946 23.5003 3.73025C22.58 3.9428 22.1689 4.67815 21.6268 5.24175C21.0674 5.82361 21.3377 5.63125 20.5201 5.76048C19.6836 5.89276 19.0231 6.0128 18.3886 6.55509C17.363 7.4316 18.0735 8.79491 17.2628 9.56759C16.8253 9.98474 15.914 10.1834 15.4072 10.6147C14.854 11.0855 14.4017 11.6577 13.9872 12.2147C13.18 13.2997 12.6289 14.4822 12.0372 15.6528C10.9364 17.8311 9.95505 20.0788 9.53676 22.4191C9.32193 23.6219 8.95986 24.7987 8.73861 25.9992C8.56801 26.925 8.64077 27.939 8.3076 28.838C7.91229 29.9044 6.967 30.8845 6.45496 31.9334C5.77589 33.3245 5.3198 34.6592 5.17539 36.1568C5.03357 37.6293 5.42826 38.9268 5.60232 40.3704C5.70313 41.2067 5.52882 41.3016 4.94784 42.091C4.50077 42.6984 4.04789 43.2999 3.76043 43.9761C3.22367 45.2393 3.25345 46.4684 4.18736 47.579C4.82826 48.3412 6.98257 49.1389 6.80616 47.44C6.72426 46.6507 5.72178 46.2936 5.91326 45.388C6.04581 44.7609 6.69152 44.3269 7.47535 44.133C8.02903 43.9961 8.30167 44.0022 8.55145 44.6032C8.77789 45.1479 8.4777 46.3372 8.40815 46.9097C8.38023 47.1398 8.33897 47.3414 8.31093 47.5545C8.11365 49.0563 8.07733 50.4381 7.24693 51.8171C6.73686 52.6645 5.73883 53.8585 6.87682 54.6751C7.77665 55.321 9.32922 54.9274 10.0308 54.2516C10.7709 55.1577 10.6063 56.1469 10.3295 57.1472C10.1576 57.7682 9.68772 58.6776 10.4274 59.1796C11.4292 59.8595 13.0644 58.7887 13.8155 58.2484C14.2497 59.2084 14.6571 62.7092 16.3691 60.6224C16.8686 60.0137 17.7003 59.42 17.8586 58.7023C18.1214 57.512 17.9328 56.2591 18.0416 55.0568C18.5879 56.6312 18.9592 57.2589 19.2936 58.875C19.4947 59.8473 19.5736 63.1094 21.6059 62.6797C23.1698 62.3492 22.1696 60.3119 21.9699 59.4814C21.5873 57.8908 21.4027 57.2173 21.033 55.6248C21.6086 56.6657 22.1117 57.7335 22.6647 58.7826C23.208 59.813 25.6371 61.9386 26.3478 61.0437C27.0584 60.1488 25.326 58.8737 24.9319 57.7902C24.1118 55.5349 23.1181 53.289 22.8825 50.9261C22.7692 49.79 22.9817 48.7409 23.0749 47.6179C23.1385 46.8508 23.0428 46.0648 22.8904 45.2914Z" fill="white"/>
</mask>
<g mask="url(#mask7_1_872)">
<path fill-rule="evenodd" clip-rule="evenodd" d="M22.8904 45.2914C23.1376 45.2805 23.3863 45.2749 23.6362 45.2749H24.5453V41.1374C21.87 39.8792 19.7084 37.7242 18.457 35.0648C17.8287 33.128 17.8661 31.0295 17.7273 29.0358C17.5444 26.4077 17.7019 23.8433 18.3037 21.2556C18.8468 18.9212 19.6274 17.669 21.4006 15.7982C22.3913 14.7529 23.8789 14.6925 25.3596 14.3215C26.8581 13.9459 28.2259 13.3742 29.163 12.2986C31.2274 14.6412 36.7434 13.7981 38.7622 16.351C41.2171 19.4555 41.2446 21.4587 41.5334 25.0456C41.7499 27.7346 41.4133 32.5975 41.3189 35.5167C40.042 37.9681 37.9765 39.9512 35.4544 41.1374V45.2749H36.3635C37.8716 45.2749 39.3321 45.4769 40.7188 45.855C40.2529 46.5691 39.6974 47.2453 39.1163 47.8739C38.2455 48.8161 37.3705 49.7908 36.3889 50.6565C35.2659 51.6468 34.1917 52.3657 33.5099 53.5999C33.2013 54.1585 32.6606 54.746 33.2328 55.3587C33.7554 55.9184 34.5792 55.803 35.1385 55.3982C35.9651 54.7997 36.5789 53.855 37.3407 53.1672C36.6049 54.4756 35.5812 56.4262 36.1068 57.8933C36.2856 58.3922 36.4671 58.3823 36.7434 58.7148C37.1797 58.7244 37.3522 58.9199 37.2609 59.3009C37.3018 59.4098 37.3427 59.5185 37.3837 59.6275C37.7145 60.2111 38.3477 60.6198 39.1518 60.3448C41.7792 59.446 38.7484 55.4034 41.641 54.2018C42.1587 54.8384 41.3942 56.627 41.3736 57.4094C41.3483 58.374 41.4013 60.5622 42.8831 60.8246C44.814 61.1667 44.0692 59.3404 44.1455 58.5634C44.234 57.6598 44.7956 56.4682 45.2526 55.668C44.9746 56.5183 44.4552 58.4025 45.8926 58.7886C47.5556 59.2354 47.3656 57.3069 47.618 56.5047C47.67 57.6917 49.2192 60.4984 50.6191 58.2814C51.3404 57.1393 50.8484 55.2573 50.7694 54.0394C51.7724 55.0653 52.5739 53.7355 52.5508 52.9976C52.9322 54.0668 54.3652 57.0481 55.6351 54.6816C56.4073 53.2427 55.5837 51.31 55.0707 49.9208C56.4216 50.0378 56.1502 48.7426 55.949 48.0993C55.652 47.1495 55.8105 47.0101 55.8717 46.028C57.7467 47.1091 57.6892 44.1754 57.5857 43.4559C57.3254 41.6442 55.9019 40.022 54.8034 38.494C54.0156 37.3981 52.5454 35.4898 52.9764 34.1682C53.4211 34.7235 54.4554 34.7177 54.8665 34.1363C55.2146 33.644 54.8457 32.8322 54.6777 32.3403C54.2184 30.9948 53.3006 30.1254 52.4708 28.9696C50.8553 26.7194 51.0877 23.7647 50.9383 21.2492C50.7521 18.1108 50.0715 15.0211 47.1928 12.7381C45.6503 11.5149 43.7705 10.5075 42.3359 9.20971C41.9447 8.8558 41.7793 8.41734 41.412 8.07618C40.9998 7.69331 40.8074 7.78398 40.467 7.23894C39.8605 6.26819 39.1483 5.35924 37.6826 5.31365C36.7238 5.28398 35.511 6.08511 34.6468 5.96803C33.9372 5.87205 33.489 4.8704 32.9067 4.53424C32.0054 4.01388 31.3764 4.21593 30.413 4.51731C28.9792 4.96587 28.0654 5.12222 26.6051 4.58605C25.6114 4.22113 24.6736 3.45946 23.5003 3.73025C22.58 3.9428 22.1689 4.67815 21.6268 5.24175C21.0674 5.82361 21.3377 5.63125 20.5201 5.76048C19.6836 5.89276 19.0231 6.0128 18.3886 6.55509C17.363 7.4316 18.0735 8.79491 17.2628 9.56759C16.8253 9.98474 15.914 10.1834 15.4072 10.6147C14.854 11.0855 14.4017 11.6577 13.9872 12.2147C13.18 13.2997 12.6289 14.4822 12.0372 15.6528C10.9364 17.8311 9.95505 20.0788 9.53676 22.4191C9.32193 23.6219 8.95986 24.7987 8.73861 25.9992C8.56801 26.925 8.64077 27.939 8.3076 28.838C7.91229 29.9044 6.967 30.8845 6.45496 31.9334C5.77589 33.3245 5.3198 34.6592 5.17539 36.1568C5.03357 37.6293 5.42826 38.9268 5.60232 40.3704C5.70313 41.2067 5.52882 41.3016 4.94784 42.091C4.50077 42.6984 4.04789 43.2999 3.76043 43.9761C3.22367 45.2393 3.25345 46.4684 4.18736 47.579C4.82826 48.3412 6.98257 49.1389 6.80616 47.44C6.72426 46.6507 5.72178 46.2936 5.91326 45.388C6.04581 44.7609 6.69152 44.3269 7.47535 44.133C8.02903 43.9961 8.30167 44.0022 8.55145 44.6032C8.77789 45.1479 8.4777 46.3372 8.40815 46.9097C8.38023 47.1398 8.33897 47.3414 8.31093 47.5545C8.11365 49.0563 8.07733 50.4381 7.24693 51.8171C6.73686 52.6645 5.73883 53.8585 6.87682 54.6751C7.77665 55.321 9.32922 54.9274 10.0308 54.2516C10.7709 55.1577 10.6063 56.1469 10.3295 57.1472C10.1576 57.7682 9.68772 58.6776 10.4274 59.1796C11.4292 59.8595 13.0644 58.7887 13.8155 58.2484C14.2497 59.2084 14.6571 62.7092 16.3691 60.6224C16.8686 60.0137 17.7003 59.42 17.8586 58.7023C18.1214 57.512 17.9328 56.2591 18.0416 55.0568C18.5879 56.6312 18.9592 57.2589 19.2936 58.875C19.4947 59.8473 19.5736 63.1094 21.6059 62.6797C23.1698 62.3492 22.1696 60.3119 21.9699 59.4814C21.5873 57.8908 21.4027 57.2173 21.033 55.6248C21.6086 56.6657 22.1117 57.7335 22.6647 58.7826C23.208 59.813 25.6371 61.9386 26.3478 61.0437C27.0584 60.1488 25.326 58.8737 24.9319 57.7902C24.1118 55.5349 23.1181 53.289 22.8825 50.9261C22.7692 49.79 22.9817 48.7409 23.0749 47.6179C23.1385 46.8508 23.0428 46.0648 22.8904 45.2914Z" fill="#8D5A5A"/>
<path d="M63.4092 3.65002H3.40918V66.65H63.4092V3.65002Z" fill="#4A312C"/>
<path fill-rule="evenodd" clip-rule="evenodd" d="M22.8904 45.2916C23.1377 45.2806 23.3863 45.275 23.6363 45.275H24.5454V41.1375C21.8701 39.8793 19.7085 37.7243 18.457 35.0649C18.5781 35.4381 18.7239 35.8053 18.9004 36.1646C20.2083 38.827 21.9132 41.2072 22.6108 44.0578C22.7098 44.4621 22.8084 44.875 22.8904 45.2916ZM40.7189 45.8551C39.3322 45.477 37.8717 45.275 36.3636 45.275H35.4545V41.1375C37.9319 39.9724 39.9688 38.0382 41.2504 35.6466C41.2329 36.3202 41.2482 36.9902 41.3351 37.6376C41.5784 39.4475 42.2446 41.0824 41.9354 42.9431C41.7661 43.9628 41.3159 44.9401 40.7189 45.8551Z" fill="black" fill-opacity="0.24"/>
<path fill-rule="evenodd" clip-rule="evenodd" d="M14.6275 28.0059C14.599 27.4609 14.1774 25.635 14.702 25.3196C15.2769 24.9736 15.1571 27.0536 15.163 27.2667C15.1729 27.6126 15.4382 30.2221 14.9522 30.2105C14.4677 30.199 14.6461 28.3614 14.6275 28.0059ZM16.5444 40.9996C16.5424 41.2278 16.3006 41.214 16.128 41.1543C15.9149 41.0806 16.0454 40.5954 16.0342 40.4363C16.0045 40.018 15.8017 38.7853 16.1115 38.4399C16.7309 37.7495 16.5468 40.6782 16.5444 40.9996ZM10.7094 43.9613C11.1478 43.9491 10.742 35.4491 10.0681 35.4586C9.59483 35.4652 10.3775 43.9696 10.7094 43.9613ZM11.2166 48.3161C10.6717 48.3161 10.7719 50.2201 11.0929 50.3723C11.5792 50.603 11.8262 48.3161 11.2166 48.3161ZM14.6795 49.1124C14.6843 49.3503 14.4117 49.3541 14.2297 49.2797C14.0232 49.1952 14.1097 48.491 14.1015 48.3347C14.0758 47.8426 13.6432 45.9335 14.0366 45.5827C14.4853 45.1828 14.4951 45.6217 14.6158 45.9199C14.9712 46.798 14.6604 48.1771 14.6795 49.1124ZM46.646 31.175C46.671 31.504 46.8889 33.6539 46.5268 33.8178C45.9036 34.0999 46.172 32.7715 46.1745 32.5999C46.1988 30.9265 45.9543 29.2672 45.7684 27.6028C45.7331 27.2867 45.1718 24.8522 45.5829 24.6504C46.1982 24.3486 46.1064 25.1557 46.1416 25.4177C46.3982 27.3231 46.5116 29.2605 46.646 31.175ZM45.9143 38.6571C45.3388 38.5442 45.0376 40.4782 45.3002 40.6856C45.736 41.0299 46.5159 38.7755 45.9143 38.6571ZM45.8534 47.1617C45.5946 47.1107 43.7095 50.7015 43.8646 50.9045C44.16 51.2912 46.7804 47.3449 45.8534 47.1617ZM41.212 48.8207C40.8071 48.6402 39.0906 51.2397 39.5288 51.435C39.9261 51.6118 41.7019 49.0383 41.212 48.8207ZM50.7785 39.0756C50.2897 39.0756 50.3114 41.7356 50.6876 41.9034C51.0765 42.0768 51.3563 39.0756 50.7785 39.0756ZM43.8954 14.6398C43.7571 14.4441 42.2647 12.7003 43.3337 12.9494C43.8544 13.0707 44.5718 14.6038 44.8067 15.0668C44.9417 15.3328 45.7122 16.5201 44.8958 16.4361C44.6736 16.4133 44.0799 14.9014 43.8954 14.6398ZM38.6472 11.1552C38.4549 11.2409 38.4581 11.3213 38.6569 11.3963C38.8493 11.3107 38.846 11.2303 38.6472 11.1552ZM19.4589 12.9845C19.0031 13.3992 17.29 15.8011 16.7029 15.8251C15.6333 15.869 17.6753 13.7945 17.9069 13.5306C18.0103 13.4122 18.4718 12.835 18.7527 12.6931C19.0393 12.5482 19.9899 12.4998 19.4589 12.9845ZM13.2396 19.3956C12.7435 19.2992 11.9134 21.7052 12.203 21.9956C12.6402 22.4343 13.7956 19.5049 13.2396 19.3956ZM18.9075 46.1733C19.0012 46.475 19.9601 48.6661 19.7191 48.9545C19.3506 49.3949 19.2449 48.7707 19.1243 48.5118C18.8566 47.9369 18.1611 46.5215 18.2729 45.9163C18.3815 45.3294 18.8127 45.8709 18.9075 46.1733ZM17.0423 51.3086C16.5208 51.3086 16.5809 53.5141 16.8915 53.6452C17.3725 53.8481 17.6821 51.3086 17.0423 51.3086ZM53.8162 49.4255C53.8472 49.5612 54.283 50.6771 53.6656 50.5154C53.3105 50.4226 53.2558 49.4389 53.1651 49.1407C52.8858 48.2214 51.9651 47.0791 51.8852 46.172C51.808 45.2953 52.3035 45.6294 52.6841 46.372C53.1923 47.3637 53.5734 48.368 53.8162 49.4255ZM49.3384 49.3139C48.8539 49.3118 48.8305 51.738 49.1335 51.8794C49.5571 52.0771 49.9565 49.3139 49.3384 49.3139ZM50.7386 29.4473C51.098 29.3545 49.9636 26.449 49.5618 26.481C48.9494 26.5299 50.1927 29.5865 50.7386 29.4473ZM44.6441 42.068C44.4517 42.1537 44.455 42.2341 44.6538 42.3092C44.8461 42.2235 44.8429 42.1431 44.6441 42.068ZM39.14 54.4972C39.3204 54.4972 39.3949 54.2219 39.1284 54.2157C38.9523 54.2171 38.8593 54.4972 39.14 54.4972ZM16.7465 42.0415C16.7531 41.612 16.1853 41.9269 16.1888 42.2893C16.1963 43.0124 16.7345 42.6822 16.7465 42.0415ZM15.3452 31.2987C15.1625 31.2987 15.0876 31.5769 15.3568 31.5835C15.5349 31.5822 15.629 31.2987 15.3452 31.2987ZM10.997 45.3634C10.9793 44.9266 10.6105 45.3731 10.6312 45.3737C10.6966 45.3753 11.0108 45.6926 10.997 45.3634ZM11.9545 22.5642C11.4164 22.5642 11.4944 23.8588 11.8379 23.9418C12.4106 24.0804 12.4889 22.5642 11.9545 22.5642ZM14.8211 50.5233C14.3017 50.5233 14.2666 52.2814 14.6251 52.3908C15.1821 52.5604 15.3621 50.5233 14.8211 50.5233ZM10.5584 51.7848C10.3602 51.8728 10.3634 51.9556 10.568 52.033C10.7663 51.945 10.7629 51.8623 10.5584 51.7848ZM49.1944 52.5387C48.6672 52.5387 48.6878 54.6881 49.0115 54.8333C49.4639 55.0364 49.8043 52.5387 49.1944 52.5387ZM43.8513 54.5363C43.3034 54.4279 43.0164 56.2026 43.2718 56.4017C43.6928 56.7299 44.414 54.6476 43.8513 54.5363ZM39.1966 56.1765C38.7426 56.1765 38.8542 56.9808 39.1161 57.1005C39.5693 57.3076 39.7032 56.1765 39.1966 56.1765ZM23.0635 8.03955C22.6837 8.03955 20.2998 9.10699 21.1908 9.42324C21.7354 9.61655 24.0312 8.03955 23.0635 8.03955Z" fill="white" fill-opacity="0.3"/>
</g>
</g>
</g>
<path d="M71.8756 45.7996C71.3706 45.7996 70.9258 45.6196 70.541 45.2596C70.1803 44.8996 70 44.4556 70 43.9276V19.5556C70 19.0276 70.1803 18.5836 70.541 18.2236C70.9258 17.8636 71.3706 17.6836 71.8756 17.6836C72.4046 17.6836 72.8495 17.8636 73.2102 18.2236C73.5709 18.5836 73.7512 19.0276 73.7512 19.5556V30.3556L85.6902 18.4396C85.9787 18.1516 86.2432 17.9596 86.4837 17.8636C86.7242 17.7436 86.9766 17.6836 87.2412 17.6836C87.8423 17.6836 88.2751 17.8636 88.5397 18.2236C88.8042 18.5836 88.9003 19.0156 88.8282 19.5196C88.7561 19.9996 88.5276 20.4436 88.1429 20.8516L78.9452 30.0676L88.3232 42.8116C88.6118 43.2196 88.732 43.6636 88.6839 44.1436C88.6358 44.5996 88.4675 44.9956 88.179 45.3316C87.8904 45.6436 87.5057 45.7996 87.0247 45.7996C86.3514 45.7996 85.8345 45.5356 85.4738 45.0076L76.3482 32.6596L73.7512 35.2516V43.9276C73.7512 44.4556 73.5709 44.8996 73.2102 45.2596C72.8495 45.6196 72.4046 45.7996 71.8756 45.7996ZM99.7725 45.9436C98.0171 45.9436 96.4421 45.5116 95.0474 44.6476C93.6527 43.7596 92.5466 42.5716 91.729 41.0836C90.9355 39.5716 90.5387 37.8676 90.5387 35.9716C90.5387 34.0756 90.9716 32.3716 91.8372 30.8596C92.7269 29.3476 93.9172 28.1596 95.4081 27.2956C96.923 26.4076 98.6183 25.9636 100.494 25.9636C102.369 25.9636 104.053 26.4076 105.544 27.2956C107.034 28.1596 108.213 29.3476 109.078 30.8596C109.968 32.3716 110.413 34.0756 110.413 35.9716H109.006C109.006 37.8676 108.597 39.5716 107.78 41.0836C106.986 42.5716 105.892 43.7596 104.498 44.6476C103.103 45.5116 101.528 45.9436 99.7725 45.9436ZM100.494 42.7036C101.72 42.7036 102.814 42.4156 103.776 41.8396C104.738 41.2396 105.495 40.4356 106.049 39.4276C106.602 38.3956 106.878 37.2436 106.878 35.9716C106.878 34.6756 106.602 33.5236 106.049 32.5156C105.495 31.4836 104.738 30.6796 103.776 30.1036C102.814 29.5036 101.72 29.2036 100.494 29.2036C99.2916 29.2036 98.1975 29.5036 97.2116 30.1036C96.2497 30.6796 95.4802 31.4836 94.9031 32.5156C94.3501 33.5236 94.0735 34.6756 94.0735 35.9716C94.0735 37.2436 94.3501 38.3956 94.9031 39.4276C95.4802 40.4356 96.2497 41.2396 97.2116 41.8396C98.1975 42.4156 99.2916 42.7036 100.494 42.7036ZM108.573 45.8356C108.044 45.8356 107.6 45.6676 107.239 45.3316C106.902 44.9716 106.734 44.5276 106.734 43.9996V38.4916L107.419 34.6756L110.413 35.9716V43.9996C110.413 44.5276 110.233 44.9716 109.872 45.3316C109.535 45.6676 109.102 45.8356 108.573 45.8356ZM124.834 45.9436C122.958 45.9436 121.263 45.5116 119.748 44.6476C118.257 43.7596 117.067 42.5596 116.177 41.0476C115.311 39.5356 114.878 37.8316 114.878 35.9356C114.878 34.0396 115.275 32.3476 116.069 30.8596C116.886 29.3476 117.992 28.1596 119.387 27.2956C120.782 26.4076 122.357 25.9636 124.112 25.9636C125.531 25.9636 126.841 26.2636 128.044 26.8636C129.246 27.4396 130.256 28.2316 131.074 29.2396V19.5196C131.074 18.9676 131.242 18.5236 131.579 18.1876C131.939 17.8516 132.384 17.6836 132.913 17.6836C133.466 17.6836 133.911 17.8516 134.248 18.1876C134.584 18.5236 134.753 18.9676 134.753 19.5196V35.9356C134.753 37.8316 134.308 39.5356 133.418 41.0476C132.552 42.5596 131.374 43.7596 129.883 44.6476C128.392 45.5116 126.709 45.9436 124.834 45.9436ZM124.834 42.7036C126.06 42.7036 127.154 42.4156 128.116 41.8396C129.078 41.2396 129.835 40.4236 130.388 39.3916C130.941 38.3596 131.218 37.2076 131.218 35.9356C131.218 34.6396 130.941 33.4876 130.388 32.4796C129.835 31.4716 129.078 30.6796 128.116 30.1036C127.154 29.5036 126.06 29.2036 124.834 29.2036C123.631 29.2036 122.537 29.5036 121.551 30.1036C120.589 30.6796 119.82 31.4716 119.243 32.4796C118.69 33.4876 118.413 34.6396 118.413 35.9356C118.413 37.2076 118.69 38.3596 119.243 39.3916C119.82 40.4236 120.589 41.2396 121.551 41.8396C122.537 42.4156 123.631 42.7036 124.834 42.7036ZM143.45 45.7996C142.921 45.7996 142.476 45.6316 142.115 45.2956C141.779 44.9356 141.61 44.4916 141.61 43.9636V27.9436C141.61 27.3916 141.779 26.9476 142.115 26.6116C142.476 26.2756 142.921 26.1076 143.45 26.1076C144.003 26.1076 144.448 26.2756 144.784 26.6116C145.121 26.9476 145.289 27.3916 145.289 27.9436V43.9636C145.289 44.4916 145.121 44.9356 144.784 45.2956C144.448 45.6316 144.003 45.7996 143.45 45.7996ZM143.45 22.9036C142.801 22.9036 142.236 22.6756 141.755 22.2196C141.298 21.7396 141.069 21.1756 141.069 20.5276C141.069 19.8796 141.298 19.3276 141.755 18.8716C142.236 18.3916 142.801 18.1516 143.45 18.1516C144.099 18.1516 144.652 18.3916 145.109 18.8716C145.59 19.3276 145.83 19.8796 145.83 20.5276C145.83 21.1756 145.59 21.7396 145.109 22.2196C144.652 22.6756 144.099 22.9036 143.45 22.9036ZM153.901 33.4876C153.901 32.0476 154.25 30.7636 154.947 29.6356C155.669 28.4836 156.631 27.5716 157.833 26.8996C159.035 26.2276 160.358 25.8916 161.8 25.8916C163.243 25.8916 164.313 26.1316 165.011 26.6116C165.732 27.0676 166.009 27.6196 165.84 28.2676C165.768 28.6036 165.624 28.8676 165.407 29.0596C165.215 29.2276 164.987 29.3356 164.722 29.3836C164.458 29.4316 164.169 29.4196 163.856 29.3476C162.317 29.0356 160.935 29.0116 159.708 29.2756C158.482 29.5396 157.508 30.0316 156.787 30.7516C156.09 31.4716 155.741 32.3836 155.741 33.4876H153.901ZM153.937 45.7996C153.36 45.7996 152.915 45.6556 152.603 45.3676C152.29 45.0556 152.134 44.5996 152.134 43.9996V27.9076C152.134 27.3316 152.29 26.8876 152.603 26.5756C152.915 26.2636 153.36 26.1076 153.937 26.1076C154.539 26.1076 154.983 26.2636 155.272 26.5756C155.585 26.8636 155.741 27.3076 155.741 27.9076V43.9996C155.741 44.5756 155.585 45.0196 155.272 45.3316C154.983 45.6436 154.539 45.7996 153.937 45.7996ZM177.177 45.9436C175.229 45.9436 173.509 45.5236 172.019 44.6836C170.528 43.8196 169.349 42.6436 168.484 41.1556C167.642 39.6436 167.221 37.9156 167.221 35.9716C167.221 34.0036 167.642 32.2756 168.484 30.7876C169.349 29.2756 170.528 28.0996 172.019 27.2596C173.509 26.3956 175.229 25.9636 177.177 25.9636C179.1 25.9636 180.807 26.3956 182.298 27.2596C183.789 28.0996 184.955 29.2756 185.797 30.7876C186.663 32.2756 187.096 34.0036 187.096 35.9716C187.096 37.9156 186.675 39.6436 185.833 41.1556C184.992 42.6436 183.825 43.8196 182.334 44.6836C180.844 45.5236 179.124 45.9436 177.177 45.9436ZM177.177 42.7036C178.427 42.7036 179.533 42.4156 180.495 41.8396C181.457 41.2636 182.202 40.4716 182.731 39.4636C183.284 38.4556 183.561 37.2916 183.561 35.9716C183.561 34.6516 183.284 33.4876 182.731 32.4796C182.202 31.4476 181.457 30.6436 180.495 30.0676C179.533 29.4916 178.427 29.2036 177.177 29.2036C175.926 29.2036 174.82 29.4916 173.858 30.0676C172.896 30.6436 172.139 31.4476 171.586 32.4796C171.033 33.4876 170.756 34.6516 170.756 35.9716C170.756 37.2916 171.033 38.4556 171.586 39.4636C172.139 40.4716 172.896 41.2636 173.858 41.8396C174.82 42.4156 175.926 42.7036 177.177 42.7036ZM198.152 45.7636C197.407 45.7636 196.83 45.3676 196.421 44.5756L188.774 28.4836C188.582 28.0756 188.557 27.6796 188.702 27.2956C188.87 26.8876 189.183 26.5756 189.64 26.3596C190.048 26.1436 190.457 26.1076 190.866 26.2516C191.299 26.3956 191.623 26.6716 191.84 27.0796L198.982 42.4516H197.25L204.32 27.0796C204.536 26.6716 204.861 26.3956 205.294 26.2516C205.751 26.1076 206.208 26.1436 206.664 26.3596C207.097 26.5516 207.386 26.8516 207.53 27.2596C207.674 27.6676 207.65 28.0756 207.458 28.4836L199.811 44.5756C199.451 45.3676 198.897 45.7636 198.152 45.7636ZM213.476 45.7996C212.946 45.7996 212.502 45.6196 212.141 45.2596C211.78 44.8996 211.6 44.4556 211.6 43.9276V19.5556C211.6 19.0036 211.78 18.5596 212.141 18.2236C212.502 17.8636 212.946 17.6836 213.476 17.6836H220.004C222.072 17.6836 223.948 18.0316 225.631 18.7276C227.338 19.3996 228.817 20.3716 230.067 21.6436C231.318 22.8916 232.28 24.3676 232.953 26.0716C233.626 27.7756 233.963 29.6596 233.963 31.7236C233.963 33.7876 233.626 35.6836 232.953 37.4116C232.28 39.1156 231.318 40.6036 230.067 41.8756C228.817 43.1236 227.338 44.0956 225.631 44.7916C223.948 45.4636 222.072 45.7996 220.004 45.7996H213.476ZM215.351 42.4876H220.004C222.024 42.4876 223.803 42.0316 225.342 41.1196C226.905 40.1836 228.132 38.9116 229.021 37.3036C229.911 35.6716 230.356 33.8116 230.356 31.7236C230.356 29.6116 229.911 27.7516 229.021 26.1436C228.132 24.5356 226.905 23.2756 225.342 22.3636C223.803 21.4516 222.024 20.9956 220.004 20.9956H215.351V42.4876ZM248.76 45.9436C246.764 45.9436 244.985 45.5236 243.422 44.6836C241.883 43.8196 240.668 42.6436 239.779 41.1556C238.913 39.6436 238.48 37.9156 238.48 35.9716C238.48 34.0036 238.889 32.2756 239.706 30.7876C240.548 29.2756 241.702 28.0996 243.169 27.2596C244.636 26.3956 246.319 25.9636 248.219 25.9636C250.094 25.9636 251.705 26.3836 253.052 27.2236C254.399 28.0396 255.421 29.1796 256.118 30.6436C256.839 32.0836 257.2 33.7516 257.2 35.6476C257.2 36.1036 257.044 36.4876 256.731 36.7996C256.418 37.0876 256.022 37.2316 255.541 37.2316H241.005V34.3516H255.433L253.954 35.3596C253.93 34.1596 253.689 33.0916 253.232 32.1556C252.775 31.1956 252.126 30.4396 251.285 29.8876C250.443 29.3356 249.421 29.0596 248.219 29.0596C246.848 29.0596 245.67 29.3596 244.684 29.9596C243.722 30.5596 242.989 31.3876 242.484 32.4436C241.979 33.4756 241.726 34.6516 241.726 35.9716C241.726 37.2916 242.027 38.4676 242.628 39.4996C243.229 40.5316 244.059 41.3476 245.117 41.9476C246.175 42.5476 247.389 42.8476 248.76 42.8476C249.505 42.8476 250.263 42.7156 251.032 42.4516C251.826 42.1636 252.463 41.8396 252.944 41.4796C253.305 41.2156 253.689 41.0836 254.098 41.0836C254.531 41.0596 254.904 41.1796 255.216 41.4436C255.625 41.8036 255.841 42.1996 255.865 42.6316C255.889 43.0636 255.697 43.4356 255.288 43.7476C254.471 44.3956 253.449 44.9236 252.222 45.3316C251.02 45.7396 249.866 45.9436 248.76 45.9436ZM267.86 45.7636C267.114 45.7636 266.537 45.3676 266.128 44.5756L258.482 28.4836C258.289 28.0756 258.265 27.6796 258.41 27.2956C258.578 26.8876 258.89 26.5756 259.347 26.3596C259.756 26.1436 260.165 26.1076 260.574 26.2516C261.007 26.3956 261.331 26.6716 261.548 27.0796L268.689 42.4516H266.958L274.028 27.0796C274.244 26.6716 274.569 26.3956 275.001 26.2516C275.458 26.1076 275.915 26.1436 276.372 26.3596C276.805 26.5516 277.093 26.8516 277.238 27.2596C277.382 27.6676 277.358 28.0756 277.166 28.4836L269.519 44.5756C269.158 45.3676 268.605 45.7636 267.86 45.7636Z" fill="#80007F"/>
<defs>
<clipPath id="clip0_1_872">
<rect width="60" height="63" fill="white" transform="translate(0 0.5)"/>
</clipPath>
</defs>
</svg>
