<svg width="160" height="36" viewBox="0 0 160 36" fill="none" xmlns="http://www.w3.org/2000/svg">
<g clip-path="url(#clip0_1_4785)">
<mask id="mask0_1_4785" style="mask-type:alpha" maskUnits="userSpaceOnUse" x="4" y="4" width="25" height="32">
<path d="M19.5 23.2213V25.5856H20C24.9706 25.5856 29 29.7301 29 34.8427V35.9998H4V34.8427C4 29.7301 8.02944 25.5856 13 25.5856H13.5V23.2213C11.3453 22.1684 9.79653 20.0167 9.53814 17.4703C8.81004 17.3644 8.25 16.7208 8.25 15.9427V14.1427C8.25 13.3782 8.79057 12.7436 9.5 12.6212V11.8284C9.5 7.85197 12.634 4.62842 16.5 4.62842C20.366 4.62842 23.5 7.85197 23.5 11.8284V12.6212C24.2094 12.7436 24.75 13.3782 24.75 14.1427V15.9427C24.75 16.7208 24.19 17.3644 23.4619 17.4703C23.2035 20.0167 21.6547 22.1684 19.5 23.2213Z" fill="white"/>
</mask>
<g mask="url(#mask0_1_4785)">
<path d="M19.5 23.2213V25.5856H20C24.9706 25.5856 29 29.7301 29 34.8427V35.9998H4V34.8427C4 29.7301 8.02944 25.5856 13 25.5856H13.5V23.2213C11.3453 22.1684 9.79653 20.0167 9.53814 17.4703C8.81004 17.3644 8.25 16.7208 8.25 15.9427V14.1427C8.25 13.3782 8.79057 12.7436 9.5 12.6212V11.8284C9.5 7.85197 12.634 4.62842 16.5 4.62842C20.366 4.62842 23.5 7.85197 23.5 11.8284V12.6212C24.2094 12.7436 24.75 13.3782 24.75 14.1427V15.9427C24.75 16.7208 24.19 17.3644 23.4619 17.4703C23.2035 20.0167 21.6547 22.1684 19.5 23.2213Z" fill="#D0C6AC"/>
<path d="M37 4.62842H4V40.6284H37V4.62842Z" fill="#EDB98A"/>
<path fill-rule="evenodd" clip-rule="evenodd" d="M23.5 14.7856V17.7428C23.5 21.7192 20.366 24.9428 16.5 24.9428C12.634 24.9428 9.5 21.7192 9.5 17.7428V14.7856V16.7142C9.5 20.6907 12.634 23.9142 16.5 23.9142C20.366 23.9142 23.5 20.6907 23.5 16.7142V14.7856Z" fill="black" fill-opacity="0.1"/>
</g>
<mask id="mask1_1_4785" style="mask-type:alpha" maskUnits="userSpaceOnUse" x="4" y="25" width="25" height="11">
<path fill-rule="evenodd" clip-rule="evenodd" d="M20.703 25.62C25.345 25.9889 29 29.9801 29 34.8493V35.9998H4V34.8493C4 29.9357 7.7219 25.9163 12.4241 25.6108C12.3918 25.7493 12.375 25.8911 12.375 26.0355C12.375 27.5622 14.2498 28.7998 16.5625 28.7998C18.8752 28.7998 20.75 27.5622 20.75 26.0355C20.75 25.8943 20.734 25.7556 20.703 25.62L20.703 25.62Z" fill="white"/>
</mask>
<g mask="url(#mask1_1_4785)">
<path fill-rule="evenodd" clip-rule="evenodd" d="M20.703 25.62C25.345 25.9889 29 29.9801 29 34.8493V35.9998H4V34.8493C4 29.9357 7.7219 25.9163 12.4241 25.6108C12.3918 25.7493 12.375 25.8911 12.375 26.0355C12.375 27.5622 14.2498 28.7998 16.5625 28.7998C18.8752 28.7998 20.75 27.5622 20.75 26.0355C20.75 25.8943 20.734 25.7556 20.703 25.62L20.703 25.62Z" fill="#E6E6E6"/>
<path d="M33 21.8569H0V35.9998H33V21.8569Z" fill="#25557C"/>
<path fill-rule="evenodd" clip-rule="evenodd" d="M17.8667 32.5789C17.3564 32.7563 16.7978 33.0062 16.5035 33.4884C16.2726 33.8667 16.2571 33.4298 15.9346 33.5646C15.6213 33.6956 15.707 34.2362 15.5932 34.5034C15.5046 34.3502 15.4628 34.1798 15.3512 34.04C15.4379 33.9827 15.5182 33.9058 15.578 33.8182C15.5975 33.7772 14.979 33.863 14.9435 33.8735C14.7671 33.9251 14.6011 33.9727 14.4325 34.0573C14.4771 33.9909 14.5208 33.924 14.5638 33.8565C14.6025 33.7958 14.6407 33.7346 14.6781 33.673C14.704 33.5856 14.7502 33.5853 14.8166 33.6722C14.9102 33.6769 14.9638 33.7181 15.0618 33.695C15.4262 33.6093 15.5423 32.8949 15.0931 32.9252C15.2905 32.5563 15.4656 32.1818 15.6247 31.7936C15.6875 32.3453 16.3847 32.1552 16.5896 31.861C16.8571 31.4768 16.5142 30.7473 16.0292 30.8181C16.1018 30.6412 16.1755 30.4629 16.2353 30.2809C16.3719 30.488 16.6106 30.5883 16.8026 30.7253C17.004 30.869 17.1743 31.0391 17.323 31.2404C17.6213 31.6442 17.7971 32.1413 18.0998 32.5329C18.0201 32.5373 17.9424 32.5526 17.8667 32.5789ZM18.9924 32.0147C18.9133 31.2744 18.3487 30.5231 17.8125 30.0634C17.4937 29.7903 16.5323 29.114 16.1491 29.6341C16.4581 29.7718 16.799 29.805 17.1053 29.9541C17.5204 30.1562 17.8456 30.4888 18.1264 30.8612C18.5186 31.3812 19.1227 32.4404 18.1857 32.7108C18.2504 32.6673 18.2879 32.6196 18.3392 32.5426C18.2133 32.5127 18.2641 32.3012 18.2199 32.1631C18.1684 32.0023 18.0687 31.8459 17.9843 31.7025C17.8505 31.4748 17.7035 31.2481 17.5463 31.0377C17.3366 30.7566 17.0856 30.5354 16.7992 30.3439C16.6859 30.2682 16.5774 30.2011 16.4472 30.162C16.2785 30.1113 16.3337 30.1731 16.2876 30.0146C16.2587 29.9153 16.2847 29.788 16.2569 29.6813C16.0102 29.8946 15.93 30.2027 15.8194 30.5018C15.6919 30.8469 15.5541 31.1878 15.4199 31.53C15.0905 32.3702 14.6657 33.1237 14.1835 33.876C14.0995 34.007 13.9128 34.2553 14.0472 34.4126C14.1673 34.5534 14.3386 34.452 14.4705 34.3948C14.6501 34.3171 14.8936 34.1165 15.0874 34.2216C15.3371 34.3571 15.2191 34.8624 15.6141 34.8423C16.0033 34.8224 15.9301 34.1634 16.0549 33.9014C16.3439 34.1181 16.5769 33.9836 16.7523 33.6943C16.9556 33.3589 17.2243 33.2242 17.5665 33.0595C17.7065 32.9921 17.9458 32.8101 18.0916 32.7875C18.2123 32.7689 18.3282 32.9011 18.4895 32.8951C18.8767 32.8806 19.0385 32.3483 18.9924 32.0147Z" fill="white"/>
<path fill-rule="evenodd" clip-rule="evenodd" d="M16.3172 32.3786C16.014 32.3214 15.5913 32.3691 15.5635 32.7841C15.5465 33.0384 15.7397 33.2788 15.9488 33.3837C16.589 33.7051 17.0874 32.5238 16.3172 32.3786Z" fill="white"/>
<path fill-rule="evenodd" clip-rule="evenodd" d="M17.542 31.9061C17.4607 31.8154 17.3291 31.7468 17.2076 31.7786C17.2465 31.751 17.2787 31.7013 17.3156 31.6707C16.9211 31.3768 16.6732 32.1179 16.8973 32.4097C17.2371 32.852 17.902 32.3112 17.542 31.9061Z" fill="white"/>
</g>
<mask id="mask2_1_4785" style="mask-type:alpha" maskUnits="userSpaceOnUse" x="14" y="18" width="5" height="4">
<path fill-rule="evenodd" clip-rule="evenodd" d="M14.1396 19.1735C14.2719 20.3939 15.2782 21.3428 16.4999 21.3428C17.7254 21.3428 18.7342 20.388 18.8614 19.1622C18.8716 19.0635 18.7645 18.8999 18.6303 18.8999C16.7685 18.8999 15.3422 18.8999 14.3858 18.8999C14.2507 18.8999 14.1264 19.0514 14.1396 19.1735Z" fill="white"/>
</mask>
<g mask="url(#mask2_1_4785)">
<path fill-rule="evenodd" clip-rule="evenodd" d="M14.1396 19.1735C14.2719 20.3939 15.2782 21.3428 16.4999 21.3428C17.7254 21.3428 18.7342 20.388 18.8614 19.1622C18.8716 19.0635 18.7645 18.8999 18.6303 18.8999C16.7685 18.8999 15.3422 18.8999 14.3858 18.8999C14.2507 18.8999 14.1264 19.0514 14.1396 19.1735Z" fill="black" fill-opacity="0.7"/>
<path d="M17.875 17.4858H15.25C14.9048 17.4858 14.625 17.7737 14.625 18.1287V18.9001C14.625 19.2552 14.9048 19.543 15.25 19.543H17.875C18.2202 19.543 18.5 19.2552 18.5 18.9001V18.1287C18.5 17.7737 18.2202 17.4858 17.875 17.4858Z" fill="white"/>
<path d="M15.875 23.143C16.6344 23.143 17.25 22.5098 17.25 21.7287C17.25 20.9477 16.6344 20.3145 15.875 20.3145C15.1156 20.3145 14.5 20.9477 14.5 21.7287C14.5 22.5098 15.1156 23.143 15.875 23.143Z" fill="#FF4F6D"/>
<path d="M17.125 23.143C17.8844 23.143 18.5 22.5098 18.5 21.7287C18.5 20.9477 17.8844 20.3145 17.125 20.3145C16.3656 20.3145 15.75 20.9477 15.75 21.7287C15.75 22.5098 16.3656 23.143 17.125 23.143Z" fill="#FF4F6D"/>
</g>
<path fill-rule="evenodd" clip-rule="evenodd" d="M15 16.7144C15 17.2824 15.6716 17.7429 16.5 17.7429C17.3284 17.7429 18 17.2824 18 16.7144" fill="black" fill-opacity="0.16"/>
<mask id="mask3_1_4785" style="mask-type:alpha" maskUnits="userSpaceOnUse" x="11" y="13" width="4" height="3">
<path fill-rule="evenodd" clip-rule="evenodd" d="M13.25 15.0489C14.4512 15.0489 15 15.6212 15 14.7292C15 13.8372 14.2165 13.2427 13.25 13.2427C12.2835 13.2427 11.5 13.8372 11.5 14.7292C11.5 15.6212 12.0488 15.0489 13.25 15.0489Z" fill="white"/>
</mask>
<g mask="url(#mask3_1_4785)">
<path fill-rule="evenodd" clip-rule="evenodd" d="M13.25 15.0489C14.4512 15.0489 15 15.6212 15 14.7292C15 13.8372 14.2165 13.2427 13.25 13.2427C12.2835 13.2427 11.5 13.8372 11.5 14.7292C11.5 15.6212 12.0488 15.0489 13.25 15.0489Z" fill="white"/>
<path d="M13.25 15.3002C13.6642 15.3002 14 14.9548 14 14.5288C14 14.1027 13.6642 13.7573 13.25 13.7573C12.8358 13.7573 12.5 14.1027 12.5 14.5288C12.5 14.9548 12.8358 15.3002 13.25 15.3002Z" fill="black" fill-opacity="0.7"/>
</g>
<mask id="mask4_1_4785" style="mask-type:alpha" maskUnits="userSpaceOnUse" x="18" y="13" width="4" height="3">
<path fill-rule="evenodd" clip-rule="evenodd" d="M19.75 15.0489C20.9512 15.0489 21.5 15.6212 21.5 14.7292C21.5 13.8372 20.7165 13.2427 19.75 13.2427C18.7835 13.2427 18 13.8372 18 14.7292C18 15.6212 18.5488 15.0489 19.75 15.0489Z" fill="white"/>
</mask>
<g mask="url(#mask4_1_4785)">
<path fill-rule="evenodd" clip-rule="evenodd" d="M19.75 15.0489C20.9512 15.0489 21.5 15.6212 21.5 14.7292C21.5 13.8372 20.7165 13.2427 19.75 13.2427C18.7835 13.2427 18 13.8372 18 14.7292C18 15.6212 18.5488 15.0489 19.75 15.0489Z" fill="white"/>
<path d="M19.75 15.3002C20.1642 15.3002 20.5 14.9548 20.5 14.5288C20.5 14.1027 20.1642 13.7573 19.75 13.7573C19.3358 13.7573 19 14.1027 19 14.5288C19 14.9548 19.3358 15.3002 19.75 15.3002Z" fill="black" fill-opacity="0.7"/>
</g>
<path fill-rule="evenodd" clip-rule="evenodd" d="M14.3324 11.9689C13.7076 12.0154 13.0921 11.9798 12.4677 11.9531C11.989 11.9327 11.503 11.8655 11.046 12.0832C10.9585 12.1248 10.4797 12.3762 10.4909 12.5137C10.4997 12.6237 10.9828 12.7955 11.0698 12.827C11.5284 12.9929 11.9674 12.9421 12.439 12.913C13.0175 12.8774 13.5934 12.9036 14.1716 12.8857C14.561 12.8737 15.1612 12.8059 15.3536 12.3203C15.4116 12.174 15.3668 11.8814 15.3087 11.7214C15.2855 11.6577 15.2186 11.6337 15.168 11.6704C14.9868 11.802 14.6354 11.9463 14.3324 11.9689Z" fill="black" fill-opacity="0.6"/>
<path fill-rule="evenodd" clip-rule="evenodd" d="M18.6676 11.9689C19.2924 12.0154 19.9079 11.9798 20.5323 11.9531C21.011 11.9327 21.497 11.8655 21.954 12.0832C22.0415 12.1248 22.5203 12.3762 22.5091 12.5137C22.5003 12.6237 22.0172 12.7955 21.9302 12.827C21.4716 12.9929 21.0326 12.9421 20.561 12.913C19.9825 12.8774 19.4066 12.9036 18.8284 12.8857C18.439 12.8737 17.8388 12.8059 17.6464 12.3203C17.5884 12.174 17.6332 11.8814 17.6913 11.7214C17.7145 11.6577 17.7814 11.6337 17.832 11.6704C18.0132 11.802 18.3646 11.9463 18.6676 11.9689Z" fill="black" fill-opacity="0.6"/>
<mask id="mask5_1_4785" style="mask-type:alpha" maskUnits="userSpaceOnUse" x="0" y="0" width="33" height="36">
<path d="M33 0H0V36H33V0Z" fill="white"/>
</mask>
<g mask="url(#mask5_1_4785)">
<mask id="mask6_1_4785" style="mask-type:alpha" maskUnits="userSpaceOnUse" x="9" y="12" width="15" height="13">
<path fill-rule="evenodd" clip-rule="evenodd" d="M18.6786 21.8789C18.3644 22.1739 18.0297 22.3065 17.6066 22.2138C17.5338 22.1978 17.237 21.6303 16.5 21.6303C15.7629 21.6303 15.4662 22.1978 15.3933 22.2138C14.9703 22.3065 14.6356 22.1739 14.3214 21.8789C13.7308 21.3244 13.2396 20.5597 13.5347 19.7254C13.6885 19.2906 13.9387 18.8131 14.3938 18.6746C14.8798 18.5267 15.5621 18.6743 16.0518 18.5733C16.2105 18.5406 16.3838 18.4824 16.5 18.3858C16.6161 18.4824 16.7895 18.5406 16.9481 18.5733C17.4378 18.6743 18.1202 18.5267 18.6061 18.6746C19.0612 18.8131 19.3114 19.2906 19.4653 19.7254C19.7604 20.5597 19.2692 21.3244 18.6786 21.8789ZM23.5101 12.6001C23.0838 13.6801 23.2485 15.0247 23.1696 16.1584C23.1055 17.0799 22.9171 18.4611 22.1216 19.0563C21.7148 19.3606 20.9743 19.8721 20.4427 19.7294C20.0768 19.6312 20.0378 18.5517 19.5569 18.1476C19.0115 17.6893 18.3304 17.4879 17.6436 17.519C17.3473 17.5324 16.748 17.5292 16.5 17.7636C16.252 17.5292 15.6527 17.5324 15.3564 17.519C14.6696 17.4879 13.9885 17.6893 13.4431 18.1476C12.9622 18.5517 12.9232 19.6312 12.5573 19.7294C12.0257 19.8721 11.2852 19.3606 10.8784 19.0563C10.0828 18.4611 9.89452 17.0799 9.83036 16.1584C9.75151 15.0247 9.91615 13.6801 9.48985 12.6001C9.28247 12.6001 9.41925 14.6738 9.41925 14.6738V17.291C9.42321 19.2567 10.6169 22.1987 13.2635 23.3221C13.9108 23.5968 15.3769 24.043 16.5 24.043C17.6231 24.043 19.0892 23.6393 19.7365 23.3645C22.3831 22.2411 23.5768 19.2567 23.5808 17.291V14.6738C23.5808 14.6738 23.7175 12.6001 23.5101 12.6001Z" fill="white"/>
</mask>
<g mask="url(#mask6_1_4785)">
<path fill-rule="evenodd" clip-rule="evenodd" d="M18.6786 21.8789C18.3644 22.1739 18.0297 22.3065 17.6066 22.2138C17.5338 22.1978 17.237 21.6303 16.5 21.6303C15.7629 21.6303 15.4662 22.1978 15.3933 22.2138C14.9703 22.3065 14.6356 22.1739 14.3214 21.8789C13.7308 21.3244 13.2396 20.5597 13.5347 19.7254C13.6885 19.2906 13.9387 18.8131 14.3938 18.6746C14.8798 18.5267 15.5621 18.6743 16.0518 18.5733C16.2105 18.5406 16.3838 18.4824 16.5 18.3858C16.6161 18.4824 16.7895 18.5406 16.9481 18.5733C17.4378 18.6743 18.1202 18.5267 18.6061 18.6746C19.0612 18.8131 19.3114 19.2906 19.4653 19.7254C19.7604 20.5597 19.2692 21.3244 18.6786 21.8789ZM23.5101 12.6001C23.0838 13.6801 23.2485 15.0247 23.1696 16.1584C23.1055 17.0799 22.9171 18.4611 22.1216 19.0563C21.7148 19.3606 20.9743 19.8721 20.4427 19.7294C20.0768 19.6312 20.0378 18.5517 19.5569 18.1476C19.0115 17.6893 18.3304 17.4879 17.6436 17.519C17.3473 17.5324 16.748 17.5292 16.5 17.7636C16.252 17.5292 15.6527 17.5324 15.3564 17.519C14.6696 17.4879 13.9885 17.6893 13.4431 18.1476C12.9622 18.5517 12.9232 19.6312 12.5573 19.7294C12.0257 19.8721 11.2852 19.3606 10.8784 19.0563C10.0828 18.4611 9.89452 17.0799 9.83036 16.1584C9.75151 15.0247 9.91615 13.6801 9.48985 12.6001C9.28247 12.6001 9.41925 14.6738 9.41925 14.6738V17.291C9.42321 19.2567 10.6169 22.1987 13.2635 23.3221C13.9108 23.5968 15.3769 24.043 16.5 24.043C17.6231 24.043 19.0892 23.6393 19.7365 23.3645C22.3831 22.2411 23.5768 19.2567 23.5808 17.291V14.6738C23.5808 14.6738 23.7175 12.6001 23.5101 12.6001Z" fill="#331B0C"/>
<path d="M35 9.25732H2V40.6288H35V9.25732Z" fill="#724133"/>
</g>
<mask id="mask7_1_4785" style="mask-type:alpha" maskUnits="userSpaceOnUse" x="1" y="1" width="31" height="35">
<path fill-rule="evenodd" clip-rule="evenodd" d="M12.5898 25.5953C12.7258 25.589 12.8625 25.5859 13 25.5859H13.5V23.2216C12.0286 22.5026 10.8397 21.2712 10.1514 19.7515C9.80587 18.6448 9.82645 17.4456 9.75011 16.3064C9.64949 14.8046 9.73611 13.3392 10.0671 11.8606C10.3658 10.5266 10.7952 9.81104 11.7704 8.74206C12.3153 8.14474 13.1335 8.11018 13.9479 7.89822C14.772 7.68357 15.5243 7.35691 16.0397 6.74228C17.1751 8.08087 20.209 7.59912 21.3193 9.05794C22.6695 10.8319 22.6846 11.9766 22.8434 14.0262C22.9625 15.5629 22.7774 18.3416 22.7255 20.0097C22.0232 21.4105 20.8872 22.5438 19.5 23.2216V25.5859H20C20.8295 25.5859 21.6327 25.7013 22.3954 25.9174C22.1392 26.3254 21.8337 26.7118 21.514 27.071C21.0351 27.6094 20.5538 28.1664 20.014 28.661C19.3964 29.2269 18.8055 29.6378 18.4305 30.343C18.2608 30.6622 17.9634 30.9979 18.2781 31.3481C18.5655 31.6678 19.0187 31.6019 19.3262 31.3706C19.7809 31.0286 20.1185 30.4888 20.5375 30.0957C20.1328 30.8434 19.5697 31.958 19.8588 32.7964C19.9572 33.0814 20.057 33.0758 20.209 33.2658C20.4489 33.2713 20.5438 33.383 20.4936 33.6007C20.5161 33.663 20.5386 33.7251 20.5611 33.7873C20.7431 34.1208 21.0913 34.3544 21.5336 34.1972C22.9786 33.6837 21.3117 31.3736 22.9027 30.6869C23.1873 31.0507 22.7669 32.0728 22.7556 32.5198C22.7416 33.0711 22.7708 34.3215 23.5858 34.4714C24.6478 34.6669 24.2382 33.6233 24.2801 33.1793C24.3288 32.6629 24.6377 31.982 24.889 31.5248C24.7361 32.0107 24.4504 33.0873 25.241 33.308C26.1557 33.5633 26.0512 32.4613 26.19 32.0029C26.2186 32.6812 27.0707 34.285 27.8406 33.0181C28.2373 32.3655 27.9667 31.2901 27.9232 30.5941C28.4749 31.1804 28.9157 30.4205 28.903 29.9988C29.1128 30.6098 29.9009 32.3134 30.5994 30.9611C31.0241 30.1389 30.5711 29.0345 30.289 28.2407C31.032 28.3075 30.8827 27.5674 30.772 27.1998C30.6087 26.6571 30.6959 26.5774 30.7295 26.0162C31.7608 26.634 31.7292 24.9576 31.6722 24.5464C31.5291 23.5112 30.7462 22.5842 30.1419 21.7111C29.7087 21.0848 28.9001 19.9944 29.1371 19.2392C29.3817 19.5565 29.9505 19.5532 30.1766 19.2209C30.3681 18.9396 30.1652 18.4758 30.0728 18.1947C29.8202 17.4258 29.3154 16.929 28.859 16.2686C27.9705 14.9827 28.0983 13.2943 28.0162 11.8569C27.9137 10.0635 27.5394 8.29801 25.9561 6.9934C25.1078 6.29444 24.0739 5.7188 23.2848 4.97718C23.0697 4.77495 22.9787 4.5244 22.7767 4.32945C22.55 4.11067 22.4442 4.16248 22.2569 3.85103C21.9234 3.29632 21.5316 2.77692 20.7255 2.75087C20.1982 2.73391 19.5312 3.1917 19.0558 3.1248C18.6656 3.06995 18.4191 2.49758 18.0988 2.30549C17.603 2.00814 17.2571 2.1236 16.7273 2.29582C15.9386 2.55213 15.436 2.64148 14.6329 2.3351C14.0863 2.12657 13.5706 1.69133 12.9253 1.84606C12.4191 1.96752 12.193 2.38772 11.8948 2.70978C11.5872 3.04227 11.7358 2.93235 11.2861 3.0062C10.8261 3.08179 10.4628 3.15038 10.1138 3.46026C9.54974 3.96112 9.94049 4.74016 9.49464 5.18169C9.25398 5.42006 8.75276 5.53359 8.47406 5.78006C8.16981 6.04908 7.921 6.37603 7.69305 6.6943C7.2491 7.31435 6.946 7.99005 6.62055 8.65894C6.01511 9.90369 5.47536 11.1881 5.2453 12.5254C5.12715 13.2127 4.92801 13.8852 4.80632 14.5712C4.71249 15.1002 4.75251 15.6796 4.56926 16.1933C4.35184 16.8027 3.83194 17.3628 3.55031 17.9621C3.17682 18.7571 2.92598 19.5197 2.84655 20.3755C2.76855 21.2169 2.98563 21.9584 3.08136 22.7833C3.13681 23.2612 3.04094 23.3154 2.7214 23.7665C2.47551 24.1136 2.22643 24.4573 2.06832 24.8437C1.77311 25.5655 1.78948 26.2679 2.30314 26.9025C2.65563 27.338 3.8405 27.7939 3.74347 26.823C3.69843 26.372 3.14706 26.168 3.25238 25.6505C3.32528 25.2921 3.68042 25.0442 4.11153 24.9334C4.41605 24.8551 4.566 24.8586 4.70338 25.202C4.82792 25.5133 4.66282 26.1929 4.62457 26.52C4.60921 26.6515 4.58652 26.7667 4.5711 26.8885C4.46259 27.7467 4.44262 28.5363 3.9859 29.3243C3.70536 29.8085 3.15644 30.4908 3.78234 30.9574C4.27724 31.3265 5.13116 31.1016 5.51701 30.7154C5.92406 31.2332 5.83356 31.7985 5.6813 32.37C5.58679 32.7249 5.32833 33.2446 5.73518 33.5314C6.28613 33.9199 7.1855 33.308 7.5986 32.9993C7.83743 33.5479 8.0615 35.5483 9.00307 34.3559C9.27783 34.008 9.73523 33.6688 9.82233 33.2587C9.96685 32.5785 9.8631 31.8626 9.92296 31.1755C10.2234 32.0752 10.4277 32.4339 10.6116 33.3574C10.7222 33.913 10.7655 35.777 11.8834 35.5315C12.7435 35.3426 12.1934 34.1784 12.0835 33.7038C11.8731 32.795 11.7716 32.4101 11.5682 31.5001C11.8848 32.0949 12.1615 32.7051 12.4657 33.3045C12.7645 33.8933 14.1005 35.108 14.4914 34.5966C14.8822 34.0853 13.9294 33.3566 13.7127 32.7375C13.2616 31.4487 12.715 30.1654 12.5855 28.8151C12.5232 28.1659 12.64 27.5664 12.6913 26.9247C12.7262 26.4864 12.6736 26.0373 12.5898 25.5953Z" fill="white"/>
</mask>
<g mask="url(#mask7_1_4785)">
<path fill-rule="evenodd" clip-rule="evenodd" d="M12.5898 25.5953C12.7258 25.589 12.8625 25.5859 13 25.5859H13.5V23.2216C12.0286 22.5026 10.8397 21.2712 10.1514 19.7515C9.80587 18.6448 9.82645 17.4456 9.75011 16.3064C9.64949 14.8046 9.73611 13.3392 10.0671 11.8606C10.3658 10.5266 10.7952 9.81104 11.7704 8.74206C12.3153 8.14474 13.1335 8.11018 13.9479 7.89822C14.772 7.68357 15.5243 7.35691 16.0397 6.74228C17.1751 8.08087 20.209 7.59912 21.3193 9.05794C22.6695 10.8319 22.6846 11.9766 22.8434 14.0262C22.9625 15.5629 22.7774 18.3416 22.7255 20.0097C22.0232 21.4105 20.8872 22.5438 19.5 23.2216V25.5859H20C20.8295 25.5859 21.6327 25.7013 22.3954 25.9174C22.1392 26.3254 21.8337 26.7118 21.514 27.071C21.0351 27.6094 20.5538 28.1664 20.014 28.661C19.3964 29.2269 18.8055 29.6378 18.4305 30.343C18.2608 30.6622 17.9634 30.9979 18.2781 31.3481C18.5655 31.6678 19.0187 31.6019 19.3262 31.3706C19.7809 31.0286 20.1185 30.4888 20.5375 30.0957C20.1328 30.8434 19.5697 31.958 19.8588 32.7964C19.9572 33.0814 20.057 33.0758 20.209 33.2658C20.4489 33.2713 20.5438 33.383 20.4936 33.6007C20.5161 33.663 20.5386 33.7251 20.5611 33.7873C20.7431 34.1208 21.0913 34.3544 21.5336 34.1972C22.9786 33.6837 21.3117 31.3736 22.9027 30.6869C23.1873 31.0507 22.7669 32.0728 22.7556 32.5198C22.7416 33.0711 22.7708 34.3215 23.5858 34.4714C24.6478 34.6669 24.2382 33.6233 24.2801 33.1793C24.3288 32.6629 24.6377 31.982 24.889 31.5248C24.7361 32.0107 24.4504 33.0873 25.241 33.308C26.1557 33.5633 26.0512 32.4613 26.19 32.0029C26.2186 32.6812 27.0707 34.285 27.8406 33.0181C28.2373 32.3655 27.9667 31.2901 27.9232 30.5941C28.4749 31.1804 28.9157 30.4205 28.903 29.9988C29.1128 30.6098 29.9009 32.3134 30.5994 30.9611C31.0241 30.1389 30.5711 29.0345 30.289 28.2407C31.032 28.3075 30.8827 27.5674 30.772 27.1998C30.6087 26.6571 30.6959 26.5774 30.7295 26.0162C31.7608 26.634 31.7292 24.9576 31.6722 24.5464C31.5291 23.5112 30.7462 22.5842 30.1419 21.7111C29.7087 21.0848 28.9001 19.9944 29.1371 19.2392C29.3817 19.5565 29.9505 19.5532 30.1766 19.2209C30.3681 18.9396 30.1652 18.4758 30.0728 18.1947C29.8202 17.4258 29.3154 16.929 28.859 16.2686C27.9705 14.9827 28.0983 13.2943 28.0162 11.8569C27.9137 10.0635 27.5394 8.29801 25.9561 6.9934C25.1078 6.29444 24.0739 5.7188 23.2848 4.97718C23.0697 4.77495 22.9787 4.5244 22.7767 4.32945C22.55 4.11067 22.4442 4.16248 22.2569 3.85103C21.9234 3.29632 21.5316 2.77692 20.7255 2.75087C20.1982 2.73391 19.5312 3.1917 19.0558 3.1248C18.6656 3.06995 18.4191 2.49758 18.0988 2.30549C17.603 2.00814 17.2571 2.1236 16.7273 2.29582C15.9386 2.55213 15.436 2.64148 14.6329 2.3351C14.0863 2.12657 13.5706 1.69133 12.9253 1.84606C12.4191 1.96752 12.193 2.38772 11.8948 2.70978C11.5872 3.04227 11.7358 2.93235 11.2861 3.0062C10.8261 3.08179 10.4628 3.15038 10.1138 3.46026C9.54974 3.96112 9.94049 4.74016 9.49464 5.18169C9.25398 5.42006 8.75276 5.53359 8.47406 5.78006C8.16981 6.04908 7.921 6.37603 7.69305 6.6943C7.2491 7.31435 6.946 7.99005 6.62055 8.65894C6.01511 9.90369 5.47536 11.1881 5.2453 12.5254C5.12715 13.2127 4.92801 13.8852 4.80632 14.5712C4.71249 15.1002 4.75251 15.6796 4.56926 16.1933C4.35184 16.8027 3.83194 17.3628 3.55031 17.9621C3.17682 18.7571 2.92598 19.5197 2.84655 20.3755C2.76855 21.2169 2.98563 21.9584 3.08136 22.7833C3.13681 23.2612 3.04094 23.3154 2.7214 23.7665C2.47551 24.1136 2.22643 24.4573 2.06832 24.8437C1.77311 25.5655 1.78948 26.2679 2.30314 26.9025C2.65563 27.338 3.8405 27.7939 3.74347 26.823C3.69843 26.372 3.14706 26.168 3.25238 25.6505C3.32528 25.2921 3.68042 25.0442 4.11153 24.9334C4.41605 24.8551 4.566 24.8586 4.70338 25.202C4.82792 25.5133 4.66282 26.1929 4.62457 26.52C4.60921 26.6515 4.58652 26.7667 4.5711 26.8885C4.46259 27.7467 4.44262 28.5363 3.9859 29.3243C3.70536 29.8085 3.15644 30.4908 3.78234 30.9574C4.27724 31.3265 5.13116 31.1016 5.51701 30.7154C5.92406 31.2332 5.83356 31.7985 5.6813 32.37C5.58679 32.7249 5.32833 33.2446 5.73518 33.5314C6.28613 33.9199 7.1855 33.308 7.5986 32.9993C7.83743 33.5479 8.0615 35.5483 9.00307 34.3559C9.27783 34.008 9.73523 33.6688 9.82233 33.2587C9.96685 32.5785 9.8631 31.8626 9.92296 31.1755C10.2234 32.0752 10.4277 32.4339 10.6116 33.3574C10.7222 33.913 10.7655 35.777 11.8834 35.5315C12.7435 35.3426 12.1934 34.1784 12.0835 33.7038C11.8731 32.795 11.7716 32.4101 11.5682 31.5001C11.8848 32.0949 12.1615 32.7051 12.4657 33.3045C12.7645 33.8933 14.1005 35.108 14.4914 34.5966C14.8822 34.0853 13.9294 33.3566 13.7127 32.7375C13.2616 31.4487 12.715 30.1654 12.5855 28.8151C12.5232 28.1659 12.64 27.5664 12.6913 26.9247C12.7262 26.4864 12.6736 26.0373 12.5898 25.5953Z" fill="#8D5A5A"/>
<path d="M34.875 1.7998H1.875V37.7998H34.875V1.7998Z" fill="#4A312C"/>
<path fill-rule="evenodd" clip-rule="evenodd" d="M12.5897 25.5953C12.7257 25.589 12.8625 25.5858 13 25.5858H13.5V23.2215C12.0286 22.5025 10.8397 21.2711 10.1514 19.7515C10.2179 19.9647 10.2981 20.1745 10.3952 20.3798C11.1146 21.9012 12.0523 23.2613 12.436 24.8902C12.4904 25.1213 12.5446 25.3572 12.5897 25.5953ZM22.3954 25.9173C21.6327 25.7012 20.8294 25.5858 20 25.5858H19.5V23.2215C20.8626 22.5557 21.9829 21.4505 22.6877 20.0838C22.6781 20.4688 22.6865 20.8516 22.7343 21.2215C22.8681 22.2558 23.2345 23.19 23.0645 24.2533C22.9713 24.8359 22.7238 25.3944 22.3954 25.9173Z" fill="black" fill-opacity="0.24"/>
<path fill-rule="evenodd" clip-rule="evenodd" d="M8.04496 15.7174C8.02933 15.406 7.79744 14.3627 8.08593 14.1824C8.40214 13.9847 8.33623 15.1733 8.33949 15.295C8.34493 15.4927 8.49087 16.9838 8.22358 16.9772C7.95711 16.9707 8.05522 15.9206 8.04496 15.7174ZM9.09925 23.1424C9.09816 23.2728 8.96519 23.2649 8.87028 23.2308C8.75307 23.1887 8.82482 22.9114 8.81864 22.8205C8.80233 22.5815 8.69077 21.8771 8.86117 21.6797C9.20184 21.2852 9.10061 22.9588 9.09925 23.1424ZM5.89 24.8348C6.13113 24.8278 5.90794 19.9707 5.5373 19.9761C5.27701 19.9799 5.7075 24.8395 5.89 24.8348ZM6.169 27.3233C5.8693 27.3233 5.92441 28.4113 6.10092 28.4983C6.36842 28.6301 6.50424 27.3233 6.169 27.3233ZM8.07359 27.7783C8.07624 27.9143 7.92629 27.9164 7.82621 27.8739C7.7126 27.8256 7.76016 27.4232 7.75568 27.3339C7.74155 27.0527 7.50361 25.9618 7.72001 25.7614C7.96678 25.5328 7.97215 25.7836 8.03853 25.954C8.234 26.4558 8.06306 27.2439 8.07359 27.7783ZM25.6552 17.5283C25.6689 17.7164 25.7887 18.9449 25.5896 19.0385C25.2468 19.1997 25.3945 18.4406 25.3958 18.3426C25.4092 17.3864 25.2747 16.4382 25.1725 15.4871C25.1531 15.3065 24.8443 13.9153 25.0704 13.8C25.4089 13.6276 25.3584 14.0888 25.3777 14.2385C25.5189 15.3273 25.5812 16.4344 25.6552 17.5283ZM25.2527 21.8039C24.9362 21.7394 24.7705 22.8445 24.915 22.963C25.1546 23.1597 25.5836 21.8715 25.2527 21.8039ZM25.2192 26.6636C25.0769 26.6345 24.0401 28.6863 24.1254 28.8024C24.2879 29.0233 25.7291 26.7683 25.2192 26.6636ZM22.6664 27.6116C22.4438 27.5085 21.4997 28.9939 21.7407 29.1055C21.9592 29.2065 22.9359 27.7359 22.6664 27.6116ZM27.928 22.043C27.6592 22.043 27.6711 23.563 27.878 23.6589C28.0919 23.758 28.2458 22.043 27.928 22.043ZM24.1423 8.07967C24.0663 7.96782 23.2455 6.97136 23.8334 7.11373C24.1198 7.18306 24.5144 8.05908 24.6435 8.32368C24.7178 8.47568 25.1416 9.15416 24.6925 9.10613C24.5704 9.09313 24.2438 8.22918 24.1423 8.07967ZM21.2558 6.08849C21.15 6.13745 21.1518 6.1834 21.2611 6.22627C21.367 6.17731 21.3652 6.13142 21.2558 6.08849ZM10.7022 7.13376C10.4516 7.37075 9.50934 8.74326 9.18647 8.75701C8.59814 8.78207 9.72125 7.59666 9.84865 7.44582C9.90552 7.37818 10.1594 7.04837 10.3139 6.96726C10.4715 6.88447 10.9943 6.8568 10.7022 7.13376ZM7.28162 10.7973C7.00875 10.7422 6.55224 12.1171 6.7115 12.283C6.95195 12.5337 7.58743 10.8597 7.28162 10.7973ZM10.399 26.0988C10.4505 26.2712 10.9779 27.5233 10.8454 27.6881C10.6427 27.9397 10.5845 27.5831 10.5182 27.4351C10.371 27.1066 9.98845 26.2978 10.0499 25.952C10.1097 25.6166 10.3469 25.926 10.399 26.0988ZM9.37314 29.0333C9.08628 29.0333 9.11937 30.2936 9.29018 30.3685C9.55476 30.4844 9.72502 29.0333 9.37314 29.0333ZM29.5987 27.9572C29.6158 28.0348 29.8555 28.6724 29.5159 28.58C29.3207 28.527 29.2906 27.9649 29.2407 27.7945C29.0871 27.2691 28.5807 26.6164 28.5367 26.0981C28.4943 25.5971 28.7668 25.788 28.9761 26.2124C29.2556 26.779 29.4652 27.3529 29.5987 27.9572ZM27.136 27.8935C26.8695 27.8923 26.8566 29.2786 27.0233 29.3594C27.2563 29.4724 27.4759 27.8935 27.136 27.8935ZM27.9061 16.5411C28.1038 16.4881 27.4799 14.8278 27.2588 14.8461C26.922 14.874 27.6058 16.6207 27.9061 16.5411ZM24.5541 23.753C24.4483 23.8019 24.4501 23.8479 24.5594 23.8907C24.6652 23.8418 24.6634 23.7958 24.5541 23.753ZM21.5269 30.8553C21.6261 30.8553 21.667 30.698 21.5205 30.6945C21.4236 30.6953 21.3724 30.8553 21.5269 30.8553ZM9.21042 23.7378C9.21409 23.4924 8.90175 23.6723 8.90372 23.8794C8.9078 24.2926 9.20383 24.1039 9.21042 23.7378ZM8.43971 17.5991C8.33922 17.5991 8.29805 17.758 8.4461 17.7618C8.54407 17.761 8.59578 17.5991 8.43971 17.5991ZM6.04818 25.636C6.03846 25.3864 5.83565 25.6416 5.847 25.6419C5.88301 25.6428 6.05579 25.8241 6.04818 25.636ZM6.57481 12.6079C6.27885 12.6079 6.32179 13.3477 6.51067 13.3951C6.82566 13.4743 6.86874 12.6079 6.57481 12.6079ZM8.15148 28.5845C7.86578 28.5845 7.84648 29.5892 8.04365 29.6517C8.35001 29.7486 8.449 28.5845 8.15148 28.5845ZM5.80696 29.3054C5.69798 29.3557 5.69974 29.403 5.81226 29.4472C5.92131 29.3969 5.91947 29.3497 5.80696 29.3054ZM27.0568 29.7362C26.7668 29.7362 26.7782 30.9644 26.9562 31.0474C27.205 31.1634 27.3922 29.7362 27.0568 29.7362ZM24.1181 30.8777C23.8167 30.8157 23.6589 31.8298 23.7993 31.9436C24.0309 32.1312 24.4275 30.9413 24.1181 30.8777ZM21.558 31.8149C21.3083 31.8149 21.3697 32.2745 21.5137 32.3429C21.763 32.4613 21.8366 31.8149 21.558 31.8149ZM12.6848 4.30811C12.4759 4.30811 11.1648 4.91807 11.6548 5.09879C11.9543 5.20925 13.217 4.30811 12.6848 4.30811Z" fill="white" fill-opacity="0.3"/>
</g>
</g>
</g>
<g clip-path="url(#clip1_1_4785)">
<path d="M44.055 25.3599C43.771 25.3599 43.5208 25.2639 43.3043 25.0719C43.1014 24.8799 43 24.6431 43 24.3615V11.3631C43 11.0815 43.1014 10.8447 43.3043 10.6527C43.5208 10.4607 43.771 10.3647 44.055 10.3647C44.3526 10.3647 44.6028 10.4607 44.8057 10.6527C45.0086 10.8447 45.1101 11.0815 45.1101 11.3631V17.1231L51.8257 10.7679C51.988 10.6143 52.1368 10.5119 52.2721 10.4607C52.4073 10.3967 52.5494 10.3647 52.6982 10.3647C53.0363 10.3647 53.2798 10.4607 53.4286 10.6527C53.5773 10.8447 53.6314 11.0751 53.5909 11.3439C53.5503 11.5999 53.4218 11.8367 53.2054 12.0543L48.0317 16.9695L53.3068 23.7663C53.4691 23.9839 53.5368 24.2207 53.5097 24.4767C53.4827 24.7199 53.388 24.9311 53.2257 25.1103C53.0634 25.2767 52.8469 25.3599 52.5764 25.3599C52.1977 25.3599 51.9069 25.2191 51.704 24.9375L46.5709 18.3519L45.1101 19.7343V24.3615C45.1101 24.6431 45.0086 24.8799 44.8057 25.0719C44.6028 25.2639 44.3526 25.3599 44.055 25.3599ZM59.747 25.4367C58.7596 25.4367 57.8737 25.2063 57.0892 24.7455C56.3047 24.2719 55.6825 23.6383 55.2226 22.8447C54.7762 22.0383 54.553 21.1295 54.553 20.1183C54.553 19.1071 54.7965 18.1983 55.2834 17.3919C55.7839 16.5855 56.4534 15.9519 57.2921 15.4911C58.1442 15.0175 59.0978 14.7807 60.1528 14.7807C61.2078 14.7807 62.1547 15.0175 62.9933 15.4911C63.8319 15.9519 64.4947 16.5855 64.9816 17.3919C65.4821 18.1983 65.7323 19.1071 65.7323 20.1183H64.941C64.941 21.1295 64.7111 22.0383 64.2512 22.8447C63.8048 23.6383 63.1894 24.2719 62.4049 24.7455C61.6204 25.2063 60.7344 25.4367 59.747 25.4367ZM60.1528 23.7087C60.8426 23.7087 61.4581 23.5551 61.9991 23.2479C62.5401 22.9279 62.9662 22.4991 63.2773 21.9615C63.5884 21.4111 63.744 20.7967 63.744 20.1183C63.744 19.4271 63.5884 18.8127 63.2773 18.2751C62.9662 17.7247 62.5401 17.2959 61.9991 16.9887C61.4581 16.6687 60.8426 16.5087 60.1528 16.5087C59.4765 16.5087 58.8611 16.6687 58.3065 16.9887C57.7655 17.2959 57.3326 17.7247 57.008 18.2751C56.6969 18.8127 56.5414 19.4271 56.5414 20.1183C56.5414 20.7967 56.6969 21.4111 57.008 21.9615C57.3326 22.4991 57.7655 22.9279 58.3065 23.2479C58.8611 23.5551 59.4765 23.7087 60.1528 23.7087ZM64.6975 25.3791C64.4 25.3791 64.1497 25.2895 63.9469 25.1103C63.7575 24.9183 63.6628 24.6815 63.6628 24.3999V21.4623L64.0483 19.4271L65.7323 20.1183V24.3999C65.7323 24.6815 65.6308 24.9183 65.428 25.1103C65.2386 25.2895 64.9951 25.3791 64.6975 25.3791ZM73.8439 25.4367C72.7889 25.4367 71.8353 25.2063 70.9832 24.7455C70.1445 24.2719 69.475 23.6319 68.9745 22.8255C68.4876 22.0191 68.2441 21.1103 68.2441 20.0991C68.2441 19.0879 68.4673 18.1855 68.9137 17.3919C69.3736 16.5855 69.9958 15.9519 70.7803 15.4911C71.5648 15.0175 72.4507 14.7807 73.4381 14.7807C74.2362 14.7807 74.9733 14.9407 75.6496 15.2607C76.3259 15.5679 76.894 15.9903 77.3539 16.5279V11.3439C77.3539 11.0495 77.4486 10.8127 77.638 10.6335C77.8408 10.4543 78.0911 10.3647 78.3886 10.3647C78.6997 10.3647 78.95 10.4543 79.1393 10.6335C79.3287 10.8127 79.4234 11.0495 79.4234 11.3439V20.0991C79.4234 21.1103 79.1732 22.0191 78.6727 22.8255C78.1858 23.6319 77.523 24.2719 76.6844 24.7455C75.8458 25.2063 74.8989 25.4367 73.8439 25.4367ZM73.8439 23.7087C74.5337 23.7087 75.1492 23.5551 75.6902 23.2479C76.2312 22.9279 76.6573 22.4927 76.9684 21.9423C77.2795 21.3919 77.4351 20.7775 77.4351 20.0991C77.4351 19.4079 77.2795 18.7935 76.9684 18.2559C76.6573 17.7183 76.2312 17.2959 75.6902 16.9887C75.1492 16.6687 74.5337 16.5087 73.8439 16.5087C73.1676 16.5087 72.5522 16.6687 71.9976 16.9887C71.4566 17.2959 71.0237 17.7183 70.6991 18.2559C70.388 18.7935 70.2325 19.4079 70.2325 20.0991C70.2325 20.7775 70.388 21.3919 70.6991 21.9423C71.0237 22.4927 71.4566 22.9279 71.9976 23.2479C72.5522 23.5551 73.1676 23.7087 73.8439 23.7087ZM84.3155 25.3599C84.018 25.3599 83.7677 25.2703 83.5648 25.0911C83.3755 24.8991 83.2808 24.6623 83.2808 24.3807V15.8367C83.2808 15.5423 83.3755 15.3055 83.5648 15.1263C83.7677 14.9471 84.018 14.8575 84.3155 14.8575C84.6266 14.8575 84.8769 14.9471 85.0662 15.1263C85.2556 15.3055 85.3503 15.5423 85.3503 15.8367V24.3807C85.3503 24.6623 85.2556 24.8991 85.0662 25.0911C84.8769 25.2703 84.6266 25.3599 84.3155 25.3599ZM84.3155 13.1487C83.9503 13.1487 83.6325 13.0271 83.362 12.7839C83.105 12.5279 82.9765 12.2271 82.9765 11.8815C82.9765 11.5359 83.105 11.2415 83.362 10.9983C83.6325 10.7423 83.9503 10.6143 84.3155 10.6143C84.6807 10.6143 84.9918 10.7423 85.2488 10.9983C85.5194 11.2415 85.6546 11.5359 85.6546 11.8815C85.6546 12.2271 85.5194 12.5279 85.2488 12.7839C84.9918 13.0271 84.6807 13.1487 84.3155 13.1487ZM90.1945 18.7935C90.1945 18.0255 90.3906 17.3407 90.7829 16.7391C91.1886 16.1247 91.7297 15.6383 92.406 15.2799C93.0823 14.9215 93.8262 14.7423 94.6378 14.7423C95.4493 14.7423 96.0513 14.8703 96.4435 15.1263C96.8493 15.3695 97.0048 15.6639 96.9102 16.0095C96.8696 16.1887 96.7884 16.3295 96.6667 16.4319C96.5585 16.5215 96.43 16.5791 96.2812 16.6047C96.1324 16.6303 95.9701 16.6239 95.7943 16.5855C94.9286 16.4191 94.1508 16.4063 93.461 16.5471C92.7712 16.6879 92.2234 16.9503 91.8176 17.3343C91.4254 17.7183 91.2292 18.2047 91.2292 18.7935H90.1945ZM90.2148 25.3599C89.8902 25.3599 89.6399 25.2831 89.4641 25.1295C89.2882 24.9631 89.2003 24.7199 89.2003 24.3999V15.8175C89.2003 15.5103 89.2882 15.2735 89.4641 15.1071C89.6399 14.9407 89.8902 14.8575 90.2148 14.8575C90.5529 14.8575 90.8032 14.9407 90.9655 15.1071C91.1413 15.2607 91.2292 15.4975 91.2292 15.8175V24.3999C91.2292 24.7071 91.1413 24.9439 90.9655 25.1103C90.8032 25.2767 90.5529 25.3599 90.2148 25.3599ZM103.287 25.4367C102.191 25.4367 101.224 25.2127 100.385 24.7647C99.5468 24.3039 98.8841 23.6767 98.3971 22.8831C97.9237 22.0767 97.687 21.1551 97.687 20.1183C97.687 19.0687 97.9237 18.1471 98.3971 17.3535C98.8841 16.5471 99.5468 15.9199 100.385 15.4719C101.224 15.0111 102.191 14.7807 103.287 14.7807C104.369 14.7807 105.329 15.0111 106.168 15.4719C107.006 15.9199 107.662 16.5471 108.136 17.3535C108.623 18.1471 108.866 19.0687 108.866 20.1183C108.866 21.1551 108.63 22.0767 108.156 22.8831C107.683 23.6767 107.027 24.3039 106.188 24.7647C105.35 25.2127 104.382 25.4367 103.287 25.4367ZM103.287 23.7087C103.99 23.7087 104.612 23.5551 105.153 23.2479C105.694 22.9407 106.114 22.5183 106.411 21.9807C106.722 21.4431 106.878 20.8223 106.878 20.1183C106.878 19.4143 106.722 18.7935 106.411 18.2559C106.114 17.7055 105.694 17.2767 105.153 16.9695C104.612 16.6623 103.99 16.5087 103.287 16.5087C102.583 16.5087 101.961 16.6623 101.42 16.9695C100.879 17.2767 100.453 17.7055 100.142 18.2559C99.8309 18.7935 99.6753 19.4143 99.6753 20.1183C99.6753 20.8223 99.8309 21.4431 100.142 21.9807C100.453 22.5183 100.879 22.9407 101.42 23.2479C101.961 23.5551 102.583 23.7087 103.287 23.7087ZM115.086 25.3407C114.666 25.3407 114.342 25.1295 114.112 24.7071L109.81 16.1247C109.702 15.9071 109.689 15.6959 109.77 15.4911C109.864 15.2735 110.04 15.1071 110.297 14.9919C110.527 14.8767 110.757 14.8575 110.987 14.9343C111.231 15.0111 111.413 15.1583 111.535 15.3759L115.552 23.5743H114.578L118.555 15.3759C118.677 15.1583 118.859 15.0111 119.103 14.9343C119.36 14.8575 119.617 14.8767 119.874 14.9919C120.117 15.0943 120.28 15.2543 120.361 15.4719C120.442 15.6895 120.428 15.9071 120.32 16.1247L116.019 24.7071C115.816 25.1295 115.505 25.3407 115.086 25.3407ZM123.705 25.3599C123.407 25.3599 123.157 25.2639 122.954 25.0719C122.751 24.8799 122.65 24.6431 122.65 24.3615V11.3631C122.65 11.0687 122.751 10.8319 122.954 10.6527C123.157 10.4607 123.407 10.3647 123.705 10.3647H127.377C128.541 10.3647 129.596 10.5503 130.542 10.9215C131.503 11.2799 132.335 11.7983 133.038 12.4767C133.741 13.1423 134.282 13.9295 134.661 14.8383C135.04 15.7471 135.229 16.7519 135.229 17.8527C135.229 18.9535 135.04 19.9647 134.661 20.8863C134.282 21.7951 133.741 22.5887 133.038 23.2671C132.335 23.9327 131.503 24.4511 130.542 24.8223C129.596 25.1807 128.541 25.3599 127.377 25.3599H123.705ZM124.76 23.5935H127.377C128.513 23.5935 129.514 23.3503 130.38 22.8639C131.259 22.3647 131.949 21.6863 132.45 20.8287C132.95 19.9583 133.2 18.9663 133.2 17.8527C133.2 16.7263 132.95 15.7343 132.45 14.8767C131.949 14.0191 131.259 13.3471 130.38 12.8607C129.514 12.3743 128.513 12.1311 127.377 12.1311H124.76V23.5935ZM143.552 25.4367C142.43 25.4367 141.429 25.2127 140.55 24.7647C139.684 24.3039 139.001 23.6767 138.5 22.8831C138.013 22.0767 137.77 21.1551 137.77 20.1183C137.77 19.0687 138 18.1471 138.46 17.3535C138.933 16.5471 139.582 15.9199 140.408 15.4719C141.233 15.0111 142.179 14.7807 143.248 14.7807C144.303 14.7807 145.209 15.0047 145.967 15.4527C146.724 15.8879 147.299 16.4959 147.691 17.2767C148.097 18.0447 148.3 18.9343 148.3 19.9455C148.3 20.1887 148.212 20.3935 148.036 20.5599C147.86 20.7135 147.637 20.7903 147.367 20.7903H139.19V19.2543H147.306L146.474 19.7919C146.46 19.1519 146.325 18.5823 146.068 18.0831C145.811 17.5711 145.446 17.1679 144.973 16.8735C144.499 16.5791 143.924 16.4319 143.248 16.4319C142.477 16.4319 141.814 16.5919 141.26 16.9119C140.719 17.2319 140.306 17.6735 140.022 18.2367C139.738 18.7871 139.596 19.4143 139.596 20.1183C139.596 20.8223 139.765 21.4495 140.103 21.9999C140.441 22.5503 140.908 22.9855 141.503 23.3055C142.098 23.6255 142.781 23.7855 143.552 23.7855C143.972 23.7855 144.398 23.7151 144.831 23.5743C145.277 23.4207 145.635 23.2479 145.906 23.0559C146.109 22.9151 146.325 22.8447 146.555 22.8447C146.799 22.8319 147.008 22.8959 147.184 23.0367C147.414 23.2287 147.536 23.4399 147.549 23.6703C147.563 23.9007 147.455 24.0991 147.225 24.2655C146.765 24.6111 146.19 24.8927 145.5 25.1103C144.824 25.3279 144.175 25.4367 143.552 25.4367ZM154.296 25.3407C153.877 25.3407 153.552 25.1295 153.322 24.7071L149.021 16.1247C148.913 15.9071 148.899 15.6959 148.98 15.4911C149.075 15.2735 149.251 15.1071 149.508 14.9919C149.738 14.8767 149.968 14.8575 150.198 14.9343C150.441 15.0111 150.624 15.1583 150.745 15.3759L154.763 23.5743H153.789L157.766 15.3759C157.887 15.1583 158.07 15.0111 158.313 14.9343C158.57 14.8575 158.827 14.8767 159.084 14.9919C159.328 15.0943 159.49 15.2543 159.571 15.4719C159.652 15.6895 159.639 15.9071 159.531 16.1247L155.229 24.7071C155.026 25.1295 154.715 25.3407 154.296 25.3407Z" fill="#80007F"/>
</g>
<defs>
<clipPath id="clip0_1_4785">
<rect width="33" height="36" fill="white"/>
</clipPath>
<clipPath id="clip1_1_4785">
<rect width="117" height="16" fill="white" transform="translate(43 10)"/>
</clipPath>
</defs>
</svg>
